aggregate.vcd
$date
	Thu Oct 27 16:00:08 2022
$end
$version
	Icarus Verilog
$end
$timescale
	1ps
$end
$scope module aggregate_tb $end
$var wire 1 ! axiov $end
$var wire 32 " axiod [31:0] $end
$var reg 2 # axiid [1:0] $end
$var reg 1 $ axiiv $end
$var reg 1 % clk $end
$var reg 1 & rst $end
$scope module agg $end
$var wire 2 ' axiid [1:0] $end
$var wire 1 $ axiiv $end
$var wire 1 ! axiov $end
$var wire 1 % clk $end
$var wire 1 & rst $end
$var wire 32 ( axiod [31:0] $end
$var reg 4 ) count [3:0] $end
$var reg 64 * data_buffer [63:0] $end
$var integer 32 + prev_state [31:0] $end
$var integer 32 , state [31:0] $end
$upscope $end
$scope begin $ivl_for_loop0 $end
$var integer 32 - i [31:0] $end
$upscope $end
$scope begin $ivl_for_loop1 $end
$var integer 32 . i [31:0] $end
$upscope $end
$scope begin $ivl_for_loop2 $end
$var integer 32 / i [31:0] $end
$upscope $end
$scope begin $ivl_for_loop3 $end
$var integer 32 0 i [31:0] $end
$upscope $end
$scope begin $ivl_for_loop4 $end
$var integer 32 1 i [31:0] $end
$upscope $end
$upscope $end
$enddefinitions $end
#0
$dumpvars
bx 1
bx 0
bx /
bx .
bx -
b0 ,
b0 +
bx *
bx )
bx (
b0 '
0&
0%
0$
b0 #
bx "
0!
$end
#10000
1%
#20000
0%
#30000
1%
#40000
0%
1&
#50000
b0 "
b0 (
b0 *
1%
#60000
0%
0&
#70000
1%
#80000
0%
#90000
1%
#100000
0%
b10 #
b10 '
1$
#110000
b1 ,
b1 )
b10 *
1%
#120000
0%
0$
#130000
b0 ,
b1 +
1%
#140000
0%
#150000
b0 +
1%
#160000
0%
#170000
1%
#180000
0%
#190000
1%
#200000
0%
b1 #
b1 '
1$
#210000
b1 ,
b1 *
1%
#220000
0%
b0 #
b0 '
#230000
b10 )
b100 *
b1 +
1%
#240000
0%
#250000
b11 )
b10000 *
1%
#260000
0%
b11 #
b11 '
#270000
b100 )
b1000011 *
1%
#280000
0%
b1 #
b1 '
#290000
b101 )
b100001101 *
1%
#300000
0%
#310000
b110 )
b10000110101 *
1%
#320000
0%
b0 #
b0 '
#330000
b111 )
b1000011010100 *
1%
#340000
0%
b11 #
b11 '
#350000
b1000 )
b100001101010011 *
1%
#360000
0%
#370000
b1001 )
b10000110101001111 *
1%
#380000
0%
#390000
b1010 )
b1000011010100111111 *
1%
#400000
0%
b10 #
b10 '
#410000
b1011 )
b100001101010011111110 *
1%
#420000
0%
b1 #
b1 '
#430000
b1100 )
b10000110101001111111001 *
1%
#440000
0%
b0 #
b0 '
#450000
b1101 )
b1000011010100111111100100 *
1%
#460000
0%
b10 #
b10 '
#470000
b1110 )
b100001101010011111110010010 *
1%
#480000
0%
b11 #
b11 '
#490000
b1111 )
b10000110101001111111001001011 *
1%
#500000
0%
b0 #
b0 '
#510000
b10 ,
b0 )
b1000011010100111111100100101100 *
1%
#520000
0%
0$
#530000
b0 ,
b10 +
1%
#540000
0%
#550000
b0 +
1%
#560000
0%
#570000
1%
#580000
0%
#590000
1%
#600000
0%
#610000
1%
#620000
0%
#630000
1%
#640000
0%
#650000
1%
#660000
0%
#670000
1%
#680000
0%
#690000
1%
#700000
0%
#710000
1%
#720000
0%
#730000
1%
#740000
0%
#750000
1%
#760000
0%
#770000
1%
#780000
0%
#790000
1%
#800000
0%
#810000
1%
#820000
0%
#830000
1%
#840000
0%
#850000
1%
#860000
0%
#870000
1%
#880000
0%
#890000
1%
#900000
0%
#910000
1%
#920000
0%
b1 #
b1 '
1$
#930000
b1 ,
b1 )
b1 *
1%
#940000
0%
b0 #
b0 '
#950000
b10 )
b100 *
b1 +
1%
#960000
0%
#970000
b11 )
b10000 *
1%
#980000
0%
b11 #
b11 '
#990000
b100 )
b1000011 *
1%
#1000000
0%
b1 #
b1 '
#1010000
b101 )
b100001101 *
1%
#1020000
0%
#1030000
b110 )
b10000110101 *
1%
#1040000
0%
b0 #
b0 '
#1050000
b111 )
b1000011010100 *
1%
#1060000
0%
b11 #
b11 '
#1070000
b1000 )
b100001101010011 *
1%
#1080000
0%
#1090000
b1001 )
b10000110101001111 *
1%
#1100000
0%
#1110000
b1010 )
b1000011010100111111 *
1%
#1120000
0%
b10 #
b10 '
#1130000
b1011 )
b100001101010011111110 *
1%
#1140000
0%
b1 #
b1 '
#1150000
b1100 )
b10000110101001111111001 *
1%
#1160000
0%
b0 #
b0 '
#1170000
b1101 )
b1000011010100111111100100 *
1%
#1180000
0%
b10 #
b10 '
#1190000
b1110 )
b100001101010011111110010010 *
1%
#1200000
0%
b11 #
b11 '
#1210000
b1111 )
b10000110101001111111001001011 *
1%
#1220000
0%
b0 #
b0 '
#1230000
b10 ,
b0 )
b1000011010100111111100100101100 *
1%
#1240000
0%
b0 -
#1250000
b1 "
b1 (
b1 )
b100001101010011111110010010110000 *
b10 +
1%
#1260000
0%
b1 -
#1270000
b100 "
b100 (
b10 )
b10000110101001111111001001011000000 *
1%
#1280000
0%
b10 -
#1290000
b10000 "
b10000 (
b11 )
b1000011010100111111100100101100000000 *
1%
#1300000
0%
b11 -
#1310000
b1000011 "
b1000011 (
b100 )
b100001101010011111110010010110000000000 *
1%
#1320000
0%
b100 -
#1330000
b100001101 "
b100001101 (
b101 )
b10000110101001111111001001011000000000000 *
1%
#1340000
0%
b101 -
#1350000
b10000110101 "
b10000110101 (
b110 )
b1000011010100111111100100101100000000000000 *
1%
#1360000
0%
b110 -
#1370000
b1000011010100 "
b1000011010100 (
b111 )
b100001101010011111110010010110000000000000000 *
1%
#1380000
0%
b111 -
#1390000
b100001101010011 "
b100001101010011 (
b1000 )
b10000110101001111111001001011000000000000000000 *
1%
#1400000
0%
b1000 -
#1410000
b10000110101001111 "
b10000110101001111 (
b1001 )
b1000011010100111111100100101100000000000000000000 *
1%
#1420000
0%
b1001 -
#1430000
b1000011010100111111 "
b1000011010100111111 (
b1010 )
b100001101010011111110010010110000000000000000000000 *
1%
#1440000
0%
b1010 -
#1450000
b100001101010011111110 "
b100001101010011111110 (
b1011 )
b10000110101001111111001001011000000000000000000000000 *
1%
#1460000
0%
b1011 -
#1470000
b10000110101001111111001 "
b10000110101001111111001 (
b1100 )
b1000011010100111111100100101100000000000000000000000000 *
1%
#1480000
0%
b1100 -
#1490000
b1000011010100111111100100 "
b1000011010100111111100100 (
b1101 )
b100001101010011111110010010110000000000000000000000000000 *
1%
#1500000
0%
b1101 -
#1510000
b100001101010011111110010010 "
b100001101010011111110010010 (
b1110 )
b10000110101001111111001001011000000000000000000000000000000 *
1%
#1520000
0%
b1110 -
#1530000
b10000110101001111111001001011 "
b10000110101001111111001001011 (
b1111 )
b1000011010100111111100100101100000000000000000000000000000000 *
1%
#1540000
0%
b1111 -
#1550000
1!
b1000011010100111111100100101100 "
b1000011010100111111100100101100 (
b11 ,
b0 )
b100001101010011111110010010110000000000000000000000000000000000 *
1%
#1560000
0%
0$
b10000 -
#1570000
0!
b0 ,
b11 +
1%
#1580000
0%
#1590000
b0 +
1%
#1600000
0%
#1610000
1%
#1620000
0%
#1630000
1%
#1640000
0%
#1650000
1%
#1660000
0%
#1670000
1%
#1680000
0%
#1690000
1%
#1700000
0%
#1710000
1%
#1720000
0%
#1730000
1%
#1740000
0%
#1750000
1%
#1760000
0%
#1770000
1%
#1780000
0%
#1790000
1%
#1800000
0%
#1810000
1%
#1820000
0%
#1830000
1%
#1840000
0%
#1850000
1%
#1860000
0%
#1870000
1%
#1880000
0%
#1890000
1%
#1900000
0%
#1910000
1%
#1920000
0%
#1930000
1%
#1940000
0%
#1950000
1%
#1960000
0%
b10 #
b10 '
1$
b0 .
#1970000
b0 "
b0 (
b1 ,
b1 )
b10 *
1%
#1980000
0%
b1 .
#1990000
b10 )
b1010 *
b1 +
1%
#2000000
0%
b10 .
#2010000
b11 )
b101010 *
1%
#2020000
0%
b11 .
#2030000
b100 )
b10101010 *
1%
#2040000
0%
b100 .
#2050000
b101 )
b1010101010 *
1%
#2060000
0%
b101 .
#2070000
b110 )
b101010101010 *
1%
#2080000
0%
b110 .
#2090000
b111 )
b10101010101010 *
1%
#2100000
0%
b111 .
#2110000
b1000 )
b1010101010101010 *
1%
#2120000
0%
b1000 .
#2130000
b1001 )
b101010101010101010 *
1%
#2140000
0%
b1001 .
#2150000
b1010 )
b10101010101010101010 *
1%
#2160000
0%
b1010 .
#2170000
b1011 )
b1010101010101010101010 *
1%
#2180000
0%
b1011 .
#2190000
b1100 )
b101010101010101010101010 *
1%
#2200000
0%
b1100 .
#2210000
b1101 )
b10101010101010101010101010 *
1%
#2220000
0%
b1101 .
#2230000
b1110 )
b1010101010101010101010101010 *
1%
#2240000
0%
b1110 .
#2250000
b1111 )
b101010101010101010101010101010 *
1%
#2260000
0%
b1111 .
#2270000
b10 ,
b0 )
b10101010101010101010101010101010 *
1%
#2280000
0%
b11 #
b11 '
b0 /
b10000 .
#2290000
b10 "
b10 (
b1 )
b1010101010101010101010101010101011 *
b10 +
1%
#2300000
0%
b1 /
#2310000
b1010 "
b1010 (
b10 )
b101010101010101010101010101010101111 *
1%
#2320000
0%
b10 /
#2330000
b101010 "
b101010 (
b11 )
b10101010101010101010101010101010111111 *
1%
#2340000
0%
b11 /
#2350000
b10101010 "
b10101010 (
b100 )
b1010101010101010101010101010101011111111 *
1%
#2360000
0%
b100 /
#2370000
b1010101010 "
b1010101010 (
b101 )
b101010101010101010101010101010101111111111 *
1%
#2380000
0%
b101 /
#2390000
b101010101010 "
b101010101010 (
b110 )
b10101010101010101010101010101010111111111111 *
1%
#2400000
0%
b110 /
#2410000
b10101010101010 "
b10101010101010 (
b111 )
b1010101010101010101010101010101011111111111111 *
1%
#2420000
0%
b111 /
#2430000
b1010101010101010 "
b1010101010101010 (
b1000 )
b101010101010101010101010101010101111111111111111 *
1%
#2440000
0%
b1000 /
#2450000
b101010101010101010 "
b101010101010101010 (
b1001 )
b10101010101010101010101010101010111111111111111111 *
1%
#2460000
0%
b1001 /
#2470000
b10101010101010101010 "
b10101010101010101010 (
b1010 )
b1010101010101010101010101010101011111111111111111111 *
1%
#2480000
0%
b1010 /
#2490000
b1010101010101010101010 "
b1010101010101010101010 (
b1011 )
b101010101010101010101010101010101111111111111111111111 *
1%
#2500000
0%
b1011 /
#2510000
b101010101010101010101010 "
b101010101010101010101010 (
b1100 )
b10101010101010101010101010101010111111111111111111111111 *
1%
#2520000
0%
b1100 /
#2530000
b10101010101010101010101010 "
b10101010101010101010101010 (
b1101 )
b1010101010101010101010101010101011111111111111111111111111 *
1%
#2540000
0%
b1101 /
#2550000
b1010101010101010101010101010 "
b1010101010101010101010101010 (
b1110 )
b101010101010101010101010101010101111111111111111111111111111 *
1%
#2560000
0%
b1110 /
#2570000
b101010101010101010101010101010 "
b101010101010101010101010101010 (
b1111 )
b10101010101010101010101010101010111111111111111111111111111111 *
1%
#2580000
0%
b1111 /
#2590000
1!
b10101010101010101010101010101010 "
b10101010101010101010101010101010 (
b11 ,
b0 )
b1010101010101010101010101010101011111111111111111111111111111111 *
1%
#2600000
0%
b1 #
b1 '
b0 0
b10000 /
#2610000
0!
b10101010101010101010101010101011 "
b10101010101010101010101010101011 (
b1 )
b1010101010101010101010101010101111111111111111111111111111111101 *
b11 +
1%
#2620000
0%
b1 0
#2630000
b10101010101010101010101010101111 "
b10101010101010101010101010101111 (
b10 )
b1010101010101010101010101010111111111111111111111111111111110101 *
1%
#2640000
0%
b10 0
#2650000
b10101010101010101010101010111111 "
b10101010101010101010101010111111 (
b11 )
b1010101010101010101010101011111111111111111111111111111111010101 *
1%
#2660000
0%
b11 0
#2670000
b10101010101010101010101011111111 "
b10101010101010101010101011111111 (
b100 )
b1010101010101010101010101111111111111111111111111111111101010101 *
1%
#2680000
0%
b100 0
#2690000
b10101010101010101010101111111111 "
b10101010101010101010101111111111 (
b101 )
b1010101010101010101010111111111111111111111111111111110101010101 *
1%
#2700000
0%
b101 0
#2710000
b10101010101010101010111111111111 "
b10101010101010101010111111111111 (
b110 )
b1010101010101010101011111111111111111111111111111111010101010101 *
1%
#2720000
0%
b110 0
#2730000
b10101010101010101011111111111111 "
b10101010101010101011111111111111 (
b111 )
b1010101010101010101111111111111111111111111111111101010101010101 *
1%
#2740000
0%
b111 0
#2750000
b10101010101010101111111111111111 "
b10101010101010101111111111111111 (
b1000 )
b1010101010101010111111111111111111111111111111110101010101010101 *
1%
#2760000
0%
b1000 0
#2770000
b10101010101010111111111111111111 "
b10101010101010111111111111111111 (
b1001 )
b1010101010101011111111111111111111111111111111010101010101010101 *
1%
#2780000
0%
b1001 0
#2790000
b10101010101011111111111111111111 "
b10101010101011111111111111111111 (
b1010 )
b1010101010101111111111111111111111111111111101010101010101010101 *
1%
#2800000
0%
b1010 0
#2810000
b10101010101111111111111111111111 "
b10101010101111111111111111111111 (
b1011 )
b1010101010111111111111111111111111111111110101010101010101010101 *
1%
#2820000
0%
b1011 0
#2830000
b10101010111111111111111111111111 "
b10101010111111111111111111111111 (
b1100 )
b1010101011111111111111111111111111111111010101010101010101010101 *
1%
#2840000
0%
b1100 0
#2850000
b10101011111111111111111111111111 "
b10101011111111111111111111111111 (
b1101 )
b1010101111111111111111111111111111111101010101010101010101010101 *
1%
#2860000
0%
b1101 0
#2870000
b10101111111111111111111111111111 "
b10101111111111111111111111111111 (
b1110 )
b1010111111111111111111111111111111110101010101010101010101010101 *
1%
#2880000
0%
b1110 0
#2890000
b10111111111111111111111111111111 "
b10111111111111111111111111111111 (
b1111 )
b1011111111111111111111111111111111010101010101010101010101010101 *
1%
#2900000
0%
b1111 0
#2910000
1!
b11111111111111111111111111111111 "
b11111111111111111111111111111111 (
b0 )
b1111111111111111111111111111111101010101010101010101010101010101 *
1%
#2920000
0%
b0 #
b0 '
b0 1
b10000 0
#2930000
0!
b11111111111111111111111111111101 "
b11111111111111111111111111111101 (
b1 )
b1111111111111111111111111111110101010101010101010101010101010100 *
1%
#2940000
0%
b1 1
#2950000
b11111111111111111111111111110101 "
b11111111111111111111111111110101 (
b10 )
b1111111111111111111111111111010101010101010101010101010101010000 *
1%
#2960000
0%
b10 1
#2970000
b11111111111111111111111111010101 "
b11111111111111111111111111010101 (
b11 )
b1111111111111111111111111101010101010101010101010101010101000000 *
1%
#2980000
0%
b11 1
#2990000
b11111111111111111111111101010101 "
b11111111111111111111111101010101 (
b100 )
b1111111111111111111111110101010101010101010101010101010100000000 *
1%
#3000000
0%
b100 1
#3010000
b11111111111111111111110101010101 "
b11111111111111111111110101010101 (
b101 )
b1111111111111111111111010101010101010101010101010101010000000000 *
1%
#3020000
0%
b101 1
#3030000
b11111111111111111111010101010101 "
b11111111111111111111010101010101 (
b110 )
b1111111111111111111101010101010101010101010101010101000000000000 *
1%
#3040000
0%
b110 1
#3050000
b11111111111111111101010101010101 "
b11111111111111111101010101010101 (
b111 )
b1111111111111111110101010101010101010101010101010100000000000000 *
1%
#3060000
0%
b111 1
#3070000
b11111111111111110101010101010101 "
b11111111111111110101010101010101 (
b1000 )
b1111111111111111010101010101010101010101010101010000000000000000 *
1%
#3080000
0%
b1000 1
#3090000
b11111111111111010101010101010101 "
b11111111111111010101010101010101 (
b1001 )
b1111111111111101010101010101010101010101010101000000000000000000 *
1%
#3100000
0%
b1001 1
#3110000
b11111111111101010101010101010101 "
b11111111111101010101010101010101 (
b1010 )
b1111111111110101010101010101010101010101010100000000000000000000 *
1%
#3120000
0%
b1010 1
#3130000
b11111111110101010101010101010101 "
b11111111110101010101010101010101 (
b1011 )
b1111111111010101010101010101010101010101010000000000000000000000 *
1%
#3140000
0%
b1011 1
#3150000
b11111111010101010101010101010101 "
b11111111010101010101010101010101 (
b1100 )
b1111111101010101010101010101010101010101000000000000000000000000 *
1%
#3160000
0%
b1100 1
#3170000
b11111101010101010101010101010101 "
b11111101010101010101010101010101 (
b1101 )
b1111110101010101010101010101010101010100000000000000000000000000 *
1%
#3180000
0%
b1101 1
#3190000
b11110101010101010101010101010101 "
b11110101010101010101010101010101 (
b1110 )
b1111010101010101010101010101010101010000000000000000000000000000 *
1%
#3200000
0%
b1110 1
#3210000
b11010101010101010101010101010101 "
b11010101010101010101010101010101 (
b1111 )
b1101010101010101010101010101010101000000000000000000000000000000 *
1%
#3220000
0%
b1111 1
#3230000
1!
b1010101010101010101010101010101 "
b1010101010101010101010101010101 (
b0 )
b101010101010101010101010101010100000000000000000000000000000000 *
1%
#3240000
0%
0$
b10000 1
#3250000
0!
b0 ,
1%
#3260000
0%
#3270000
b0 +
1%
