bitorder.vcd
$date
	Thu Oct 27 16:59:26 2022
$end
$version
	Icarus Verilog
$end
$timescale
	1ps
$end
$scope module bitorder_tb $end
$var wire 1 ! axiov $end
$var wire 2 " axiod [1:0] $end
$var reg 2 # axiid [1:0] $end
$var reg 1 $ axiiv $end
$var reg 1 % clk $end
$var reg 1 & rst $end
$scope module bo $end
$var wire 2 ' axiid [1:0] $end
$var wire 1 $ axiiv $end
$var wire 1 ! axiov $end
$var wire 1 % clk $end
$var wire 1 & rst $end
$var wire 2 ( axiod [1:0] $end
$var reg 8 ) buffer0 [7:0] $end
$var reg 8 * buffer1 [7:0] $end
$var reg 2 + ind [1:0] $end
$var integer 32 , state [31:0] $end
$upscope $end
$scope begin $ivl_for_loop0 $end
$var integer 32 - i [31:0] $end
$upscope $end
$upscope $end
$enddefinitions $end
#0
$dumpvars
bx -
b0 ,
bx +
bx *
bx )
bx (
b0 '
0&
0%
0$
b0 #
bx "
0!
$end
#10000
1%
#20000
0%
#30000
1%
#40000
0%
1&
#50000
b0 "
b0 (
b0 +
b0 *
b0 )
1%
#60000
0%
0&
#70000
1%
#80000
0%
#90000
1%
#100000
0%
1$
#110000
b1 +
b1 ,
1%
#120000
0%
b1 #
b1 '
#130000
b1 "
b1 (
b10 +
b1000000 )
1%
#140000
0%
0$
#150000
b0 "
b0 (
b0 +
b0 )
b0 ,
1%
#160000
0%
#170000
1%
#180000
0%
#190000
1%
#200000
0%
#210000
1%
#220000
0%
#230000
1%
#240000
0%
#250000
1%
#260000
0%
#270000
1%
#280000
0%
#290000
1%
#300000
0%
#310000
1%
#320000
0%
#330000
1%
#340000
0%
#350000
1%
#360000
0%
#370000
1%
#380000
0%
#390000
1%
#400000
0%
#410000
1%
#420000
0%
#430000
1%
#440000
0%
#450000
1%
#460000
0%
#470000
1%
#480000
0%
#490000
1%
#500000
0%
#510000
1%
#520000
0%
#530000
1%
#540000
0%
b0 #
b0 '
1$
#550000
b1 +
b1 ,
1%
#560000
0%
b1 #
b1 '
#570000
b1 "
b1 (
b10 +
b1000000 )
1%
#580000
0%
b0 #
b0 '
#590000
b0 "
b0 (
b11 +
b10000 )
1%
#600000
0%
b1 #
b1 '
#610000
1!
b1 "
b1 (
b0 +
b11 ,
b1000100 )
1%
#620000
0%
0$
#630000
b0 "
b0 (
b100 ,
b1 +
b10000 )
1%
#640000
0%
#650000
b1 "
b1 (
b10 +
b1000000 )
1%
#660000
0%
#670000
b0 "
b0 (
b11 +
b0 )
1%
#680000
0%
#690000
0!
b0 +
b0 ,
1%
#700000
0%
#710000
1%
#720000
0%
#730000
1%
#740000
0%
#750000
1%
#760000
0%
#770000
1%
#780000
0%
#790000
1%
#800000
0%
#810000
1%
#820000
0%
#830000
1%
#840000
0%
#850000
1%
#860000
0%
#870000
1%
#880000
0%
#890000
1%
#900000
0%
#910000
1%
#920000
0%
#930000
1%
#940000
0%
#950000
1%
#960000
0%
#970000
1%
#980000
0%
#990000
1%
#1000000
0%
#1010000
1%
#1020000
0%
b0 #
b0 '
1$
#1030000
b1 +
b1 ,
1%
#1040000
0%
b1 #
b1 '
#1050000
b1 "
b1 (
b10 +
b1000000 )
1%
#1060000
0%
b0 #
b0 '
#1070000
b0 "
b0 (
b11 +
b10000 )
1%
#1080000
0%
b1 #
b1 '
#1090000
1!
b1 "
b1 (
b0 +
b11 ,
b1000100 )
1%
#1100000
0%
b11 #
b11 '
#1110000
b0 "
b0 (
b1 +
b11000000 *
b10000 )
1%
#1120000
0%
b1 #
b1 '
#1130000
b1 "
b1 (
b10 +
b1110000 *
b1000000 )
1%
#1140000
0%
b11 #
b11 '
#1150000
b0 "
b0 (
b11 +
b11011100 *
b0 )
1%
#1160000
0%
b1 #
b1 '
#1170000
b1 "
b1 (
b0 +
b10 ,
b1110111 *
1%
#1180000
0%
0$
#1190000
b11 "
b11 (
b101 ,
b1 +
b11011100 *
1%
#1200000
0%
#1210000
b1 "
b1 (
b10 +
b1110000 *
1%
#1220000
0%
#1230000
b11 "
b11 (
b11 +
b11000000 *
1%
#1240000
0%
#1250000
b0 "
b0 (
0!
b0 +
b0 ,
b0 *
1%
#1260000
0%
#1270000
1%
#1280000
0%
#1290000
1%
#1300000
0%
#1310000
1%
#1320000
0%
#1330000
1%
#1340000
0%
#1350000
1%
#1360000
0%
#1370000
1%
#1380000
0%
#1390000
1%
#1400000
0%
#1410000
1%
#1420000
0%
#1430000
1%
#1440000
0%
#1450000
1%
#1460000
0%
#1470000
1%
#1480000
0%
#1490000
1%
#1500000
0%
#1510000
1%
#1520000
0%
#1530000
1%
#1540000
0%
#1550000
1%
#1560000
0%
#1570000
1%
#1580000
0%
b0 #
b0 '
1$
#1590000
b1 +
b1 ,
1%
#1600000
0%
b1 #
b1 '
#1610000
b1 "
b1 (
b10 +
b1000000 )
1%
#1620000
0%
b0 #
b0 '
#1630000
b0 "
b0 (
b11 +
b10000 )
1%
#1640000
0%
b1 #
b1 '
#1650000
1!
b1 "
b1 (
b0 +
b11 ,
b1000100 )
1%
#1660000
0%
b11 #
b11 '
#1670000
b0 "
b0 (
b1 +
b11000000 *
b10000 )
1%
#1680000
0%
b1 #
b1 '
#1690000
b1 "
b1 (
b10 +
b1110000 *
b1000000 )
1%
#1700000
0%
b11 #
b11 '
#1710000
b0 "
b0 (
b11 +
b11011100 *
b0 )
1%
#1720000
0%
b1 #
b1 '
#1730000
b1 "
b1 (
b0 +
b10 ,
b1110111 *
1%
#1740000
0%
#1750000
b11 "
b11 (
b1 +
b1000000 )
b11011100 *
1%
#1760000
0%
0$
#1770000
b1 "
b1 (
b101 ,
b10 +
b1110000 *
1%
#1780000
0%
#1790000
b11 "
b11 (
b11 +
b11000000 *
1%
#1800000
0%
#1810000
b0 "
b0 (
0!
b0 +
b0 )
b0 ,
b0 *
1%
#1820000
0%
#1830000
1%
#1840000
0%
#1850000
1%
#1860000
0%
#1870000
1%
#1880000
0%
#1890000
1%
#1900000
0%
#1910000
1%
#1920000
0%
#1930000
1%
#1940000
0%
#1950000
1%
#1960000
0%
#1970000
1%
#1980000
0%
#1990000
1%
#2000000
0%
#2010000
1%
#2020000
0%
#2030000
1%
#2040000
0%
#2050000
1%
#2060000
0%
#2070000
1%
#2080000
0%
#2090000
1%
#2100000
0%
#2110000
1%
#2120000
0%
#2130000
1%
#2140000
0%
#2150000
1%
#2160000
0%
b0 #
b0 '
1$
b0 -
#2170000
b1 +
b1 ,
1%
#2180000
0%
b1 #
b1 '
#2190000
b1 "
b1 (
b10 +
b1000000 )
1%
#2200000
0%
b11 #
b11 '
#2210000
b11 "
b11 (
b11 +
b11010000 )
1%
#2220000
0%
b1 #
b1 '
#2230000
1!
b1 "
b1 (
b0 +
b11 ,
b1110100 )
1%
#2240000
0%
b0 #
b0 '
b1 -
#2250000
b11 "
b11 (
b1 +
b11010000 )
1%
#2260000
0%
b1 #
b1 '
#2270000
b1 "
b1 (
b10 +
b1000000 *
b1000000 )
1%
#2280000
0%
b11 #
b11 '
#2290000
b0 "
b0 (
b11 +
b11010000 *
b0 )
1%
#2300000
0%
b1 #
b1 '
#2310000
b1 "
b1 (
b0 +
b10 ,
b1110100 *
1%
#2320000
0%
b0 #
b0 '
b10 -
#2330000
b11 "
b11 (
b1 +
b11010000 *
1%
#2340000
0%
b1 #
b1 '
#2350000
b1 "
b1 (
b10 +
b1000000 )
b1000000 *
1%
#2360000
0%
b11 #
b11 '
#2370000
b0 "
b0 (
b11 +
b11010000 )
b0 *
1%
#2380000
0%
b1 #
b1 '
#2390000
b1 "
b1 (
b0 +
b11 ,
b1110100 )
1%
#2400000
0%
b0 #
b0 '
b11 -
#2410000
b11 "
b11 (
b1 +
b11010000 )
1%
#2420000
0%
b1 #
b1 '
#2430000
b1 "
b1 (
b10 +
b1000000 *
b1000000 )
1%
#2440000
0%
b11 #
b11 '
#2450000
b0 "
b0 (
b11 +
b11010000 *
b0 )
1%
#2460000
0%
b1 #
b1 '
#2470000
b1 "
b1 (
b0 +
b10 ,
b1110100 *
1%
#2480000
0%
b0 #
b0 '
b100 -
#2490000
b11 "
b11 (
b1 +
b11010000 *
1%
#2500000
0%
b1 #
b1 '
#2510000
b1 "
b1 (
b10 +
b1000000 )
b1000000 *
1%
#2520000
0%
b11 #
b11 '
#2530000
b0 "
b0 (
b11 +
b11010000 )
b0 *
1%
#2540000
0%
b1 #
b1 '
#2550000
b1 "
b1 (
b0 +
b11 ,
b1110100 )
1%
#2560000
0%
b0 #
b0 '
b101 -
#2570000
b11 "
b11 (
b1 +
b11010000 )
1%
#2580000
0%
b1 #
b1 '
#2590000
b1 "
b1 (
b10 +
b1000000 *
b1000000 )
1%
#2600000
0%
b11 #
b11 '
#2610000
b0 "
b0 (
b11 +
b11010000 *
b0 )
1%
#2620000
0%
b1 #
b1 '
#2630000
b1 "
b1 (
b0 +
b10 ,
b1110100 *
1%
#2640000
0%
b0 #
b0 '
b110 -
#2650000
b11 "
b11 (
b1 +
b11010000 *
1%
#2660000
0%
b1 #
b1 '
#2670000
b1 "
b1 (
b10 +
b1000000 )
b1000000 *
1%
#2680000
0%
b11 #
b11 '
#2690000
b0 "
b0 (
b11 +
b11010000 )
b0 *
1%
#2700000
0%
b1 #
b1 '
#2710000
b1 "
b1 (
b0 +
b11 ,
b1110100 )
1%
#2720000
0%
b0 #
b0 '
b111 -
#2730000
b11 "
b11 (
b1 +
b11010000 )
1%
#2740000
0%
b1 #
b1 '
#2750000
b1 "
b1 (
b10 +
b1000000 *
b1000000 )
1%
#2760000
0%
b11 #
b11 '
#2770000
b0 "
b0 (
b11 +
b11010000 *
b0 )
1%
#2780000
0%
b1 #
b1 '
#2790000
b1 "
b1 (
b0 +
b10 ,
b1110100 *
1%
#2800000
0%
b0 #
b0 '
b1000 -
#2810000
b11 "
b11 (
b1 +
b11010000 *
1%
#2820000
0%
b1 #
b1 '
#2830000
b1 "
b1 (
b10 +
b1000000 )
b1000000 *
1%
#2840000
0%
b11 #
b11 '
#2850000
b0 "
b0 (
b11 +
b11010000 )
b0 *
1%
#2860000
0%
b1 #
b1 '
#2870000
b1 "
b1 (
b0 +
b11 ,
b1110100 )
1%
#2880000
0%
b0 #
b0 '
b1001 -
#2890000
b11 "
b11 (
b1 +
b11010000 )
1%
#2900000
0%
b1 #
b1 '
#2910000
b1 "
b1 (
b10 +
b1000000 *
b1000000 )
1%
#2920000
0%
b11 #
b11 '
#2930000
b0 "
b0 (
b11 +
b11010000 *
b0 )
1%
#2940000
0%
b1 #
b1 '
#2950000
b1 "
b1 (
b0 +
b10 ,
b1110100 *
1%
#2960000
0%
b0 #
b0 '
b1010 -
#2970000
b11 "
b11 (
b1 +
b11010000 *
1%
#2980000
0%
b1 #
b1 '
#2990000
b1 "
b1 (
b10 +
b1000000 )
b1000000 *
1%
#3000000
0%
b11 #
b11 '
#3010000
b0 "
b0 (
b11 +
b11010000 )
b0 *
1%
#3020000
0%
b1 #
b1 '
#3030000
b1 "
b1 (
b0 +
b11 ,
b1110100 )
1%
#3040000
0%
b0 #
b0 '
b1011 -
#3050000
b11 "
b11 (
b1 +
b11010000 )
1%
#3060000
0%
b1 #
b1 '
#3070000
b1 "
b1 (
b10 +
b1000000 *
b1000000 )
1%
#3080000
0%
b11 #
b11 '
#3090000
b0 "
b0 (
b11 +
b11010000 *
b0 )
1%
#3100000
0%
b1 #
b1 '
#3110000
b1 "
b1 (
b0 +
b10 ,
b1110100 *
1%
#3120000
0%
b0 #
b0 '
b1100 -
#3130000
b11 "
b11 (
b1 +
b11010000 *
1%
#3140000
0%
b1 #
b1 '
#3150000
b1 "
b1 (
b10 +
b1000000 )
b1000000 *
1%
#3160000
0%
b11 #
b11 '
#3170000
b0 "
b0 (
b11 +
b11010000 )
b0 *
1%
#3180000
0%
b1 #
b1 '
#3190000
b1 "
b1 (
b0 +
b11 ,
b1110100 )
1%
#3200000
0%
b0 #
b0 '
b1101 -
#3210000
b11 "
b11 (
b1 +
b11010000 )
1%
#3220000
0%
b1 #
b1 '
#3230000
b1 "
b1 (
b10 +
b1000000 *
b1000000 )
1%
#3240000
0%
b11 #
b11 '
#3250000
b0 "
b0 (
b11 +
b11010000 *
b0 )
1%
#3260000
0%
b1 #
b1 '
#3270000
b1 "
b1 (
b0 +
b10 ,
b1110100 *
1%
#3280000
0%
b0 #
b0 '
b1110 -
#3290000
b11 "
b11 (
b1 +
b11010000 *
1%
#3300000
0%
b1 #
b1 '
#3310000
b1 "
b1 (
b10 +
b1000000 )
b1000000 *
1%
#3320000
0%
b11 #
b11 '
#3330000
b0 "
b0 (
b11 +
b11010000 )
b0 *
1%
#3340000
0%
b1 #
b1 '
#3350000
b1 "
b1 (
b0 +
b11 ,
b1110100 )
1%
#3360000
0%
b0 #
b0 '
b1111 -
#3370000
b11 "
b11 (
b1 +
b11010000 )
1%
#3380000
0%
b1 #
b1 '
#3390000
b1 "
b1 (
b10 +
b1000000 *
b1000000 )
1%
#3400000
0%
b11 #
b11 '
#3410000
b0 "
b0 (
b11 +
b11010000 *
b0 )
1%
#3420000
0%
b1 #
b1 '
#3430000
b1 "
b1 (
b0 +
b10 ,
b1110100 *
1%
#3440000
0%
b0 #
b0 '
b10000 -
#3450000
b11 "
b11 (
b1 +
b11010000 *
1%
#3460000
0%
b1 #
b1 '
#3470000
b1 "
b1 (
b10 +
b1000000 )
b1000000 *
1%
#3480000
0%
b11 #
b11 '
#3490000
b0 "
b0 (
b11 +
b11010000 )
b0 *
1%
#3500000
0%
b1 #
b1 '
#3510000
b1 "
b1 (
b0 +
b11 ,
b1110100 )
1%
#3520000
0%
b0 #
b0 '
b10001 -
#3530000
b11 "
b11 (
b1 +
b11010000 )
1%
#3540000
0%
b1 #
b1 '
#3550000
b1 "
b1 (
b10 +
b1000000 *
b1000000 )
1%
#3560000
0%
b11 #
b11 '
#3570000
b0 "
b0 (
b11 +
b11010000 *
b0 )
1%
#3580000
0%
b1 #
b1 '
#3590000
b1 "
b1 (
b0 +
b10 ,
b1110100 *
1%
#3600000
0%
b0 #
b0 '
b10010 -
#3610000
b11 "
b11 (
b1 +
b11010000 *
1%
#3620000
0%
b1 #
b1 '
#3630000
b1 "
b1 (
b10 +
b1000000 )
b1000000 *
1%
#3640000
0%
b11 #
b11 '
#3650000
b0 "
b0 (
b11 +
b11010000 )
b0 *
1%
#3660000
0%
b1 #
b1 '
#3670000
b1 "
b1 (
b0 +
b11 ,
b1110100 )
1%
#3680000
0%
b0 #
b0 '
b10011 -
#3690000
b11 "
b11 (
b1 +
b11010000 )
1%
#3700000
0%
b1 #
b1 '
#3710000
b1 "
b1 (
b10 +
b1000000 *
b1000000 )
1%
#3720000
0%
b11 #
b11 '
#3730000
b0 "
b0 (
b11 +
b11010000 *
b0 )
1%
#3740000
0%
b1 #
b1 '
#3750000
b1 "
b1 (
b0 +
b10 ,
b1110100 *
1%
#3760000
0%
b0 #
b0 '
b10100 -
#3770000
b11 "
b11 (
b1 +
b11010000 *
1%
#3780000
0%
b1 #
b1 '
#3790000
b1 "
b1 (
b10 +
b1000000 )
b1000000 *
1%
#3800000
0%
b11 #
b11 '
#3810000
b0 "
b0 (
b11 +
b11010000 )
b0 *
1%
#3820000
0%
b1 #
b1 '
#3830000
b1 "
b1 (
b0 +
b11 ,
b1110100 )
1%
#3840000
0%
b0 #
b0 '
b10101 -
#3850000
b11 "
b11 (
b1 +
b11010000 )
1%
#3860000
0%
b1 #
b1 '
#3870000
b1 "
b1 (
b10 +
b1000000 *
b1000000 )
1%
#3880000
0%
b11 #
b11 '
#3890000
b0 "
b0 (
b11 +
b11010000 *
b0 )
1%
#3900000
0%
b1 #
b1 '
#3910000
b1 "
b1 (
b0 +
b10 ,
b1110100 *
1%
#3920000
0%
b0 #
b0 '
b10110 -
#3930000
b11 "
b11 (
b1 +
b11010000 *
1%
#3940000
0%
b1 #
b1 '
#3950000
b1 "
b1 (
b10 +
b1000000 )
b1000000 *
1%
#3960000
0%
b11 #
b11 '
#3970000
b0 "
b0 (
b11 +
b11010000 )
b0 *
1%
#3980000
0%
b1 #
b1 '
#3990000
b1 "
b1 (
b0 +
b11 ,
b1110100 )
1%
#4000000
0%
b0 #
b0 '
b10111 -
#4010000
b11 "
b11 (
b1 +
b11010000 )
1%
#4020000
0%
b1 #
b1 '
#4030000
b1 "
b1 (
b10 +
b1000000 *
b1000000 )
1%
#4040000
0%
b11 #
b11 '
#4050000
b0 "
b0 (
b11 +
b11010000 *
b0 )
1%
#4060000
0%
b1 #
b1 '
#4070000
b1 "
b1 (
b0 +
b10 ,
b1110100 *
1%
#4080000
0%
b0 #
b0 '
b11000 -
#4090000
b11 "
b11 (
b1 +
b11010000 *
1%
#4100000
0%
b1 #
b1 '
#4110000
b1 "
b1 (
b10 +
b1000000 )
b1000000 *
1%
#4120000
0%
b11 #
b11 '
#4130000
b0 "
b0 (
b11 +
b11010000 )
b0 *
1%
#4140000
0%
b1 #
b1 '
#4150000
b1 "
b1 (
b0 +
b11 ,
b1110100 )
1%
#4160000
0%
b0 #
b0 '
b11001 -
#4170000
b11 "
b11 (
b1 +
b11010000 )
1%
#4180000
0%
b1 #
b1 '
#4190000
b1 "
b1 (
b10 +
b1000000 *
b1000000 )
1%
#4200000
0%
b11 #
b11 '
#4210000
b0 "
b0 (
b11 +
b11010000 *
b0 )
1%
#4220000
0%
b1 #
b1 '
#4230000
b1 "
b1 (
b0 +
b10 ,
b1110100 *
1%
#4240000
0%
b0 #
b0 '
b11010 -
#4250000
b11 "
b11 (
b1 +
b11010000 *
1%
#4260000
0%
b1 #
b1 '
#4270000
b1 "
b1 (
b10 +
b1000000 )
b1000000 *
1%
#4280000
0%
b11 #
b11 '
#4290000
b0 "
b0 (
b11 +
b11010000 )
b0 *
1%
#4300000
0%
b1 #
b1 '
#4310000
b1 "
b1 (
b0 +
b11 ,
b1110100 )
1%
#4320000
0%
b0 #
b0 '
b11011 -
#4330000
b11 "
b11 (
b1 +
b11010000 )
1%
#4340000
0%
b1 #
b1 '
#4350000
b1 "
b1 (
b10 +
b1000000 *
b1000000 )
1%
#4360000
0%
b11 #
b11 '
#4370000
b0 "
b0 (
b11 +
b11010000 *
b0 )
1%
#4380000
0%
b1 #
b1 '
#4390000
b1 "
b1 (
b0 +
b10 ,
b1110100 *
1%
#4400000
0%
b0 #
b0 '
b11100 -
#4410000
b11 "
b11 (
b1 +
b11010000 *
1%
#4420000
0%
b1 #
b1 '
#4430000
b1 "
b1 (
b10 +
b1000000 )
b1000000 *
1%
#4440000
0%
b11 #
b11 '
#4450000
b0 "
b0 (
b11 +
b11010000 )
b0 *
1%
#4460000
0%
b1 #
b1 '
#4470000
b1 "
b1 (
b0 +
b11 ,
b1110100 )
1%
#4480000
0%
b0 #
b0 '
b11101 -
#4490000
b11 "
b11 (
b1 +
b11010000 )
1%
#4500000
0%
b1 #
b1 '
#4510000
b1 "
b1 (
b10 +
b1000000 *
b1000000 )
1%
#4520000
0%
b11 #
b11 '
#4530000
b0 "
b0 (
b11 +
b11010000 *
b0 )
1%
#4540000
0%
b1 #
b1 '
#4550000
b1 "
b1 (
b0 +
b10 ,
b1110100 *
1%
#4560000
0%
b0 #
b0 '
b11110 -
#4570000
b11 "
b11 (
b1 +
b11010000 *
1%
#4580000
0%
b1 #
b1 '
#4590000
b1 "
b1 (
b10 +
b1000000 )
b1000000 *
1%
#4600000
0%
b11 #
b11 '
#4610000
b0 "
b0 (
b11 +
b11010000 )
b0 *
1%
#4620000
0%
b1 #
b1 '
#4630000
b1 "
b1 (
b0 +
b11 ,
b1110100 )
1%
#4640000
0%
b0 #
b0 '
b11111 -
#4650000
b11 "
b11 (
b1 +
b11010000 )
1%
#4660000
0%
b1 #
b1 '
#4670000
b1 "
b1 (
b10 +
b1000000 *
b1000000 )
1%
#4680000
0%
b11 #
b11 '
#4690000
b0 "
b0 (
b11 +
b11010000 *
b0 )
1%
#4700000
0%
b1 #
b1 '
#4710000
b1 "
b1 (
b0 +
b10 ,
b1110100 *
1%
#4720000
0%
b0 #
b0 '
b100000 -
#4730000
b11 "
b11 (
b1 +
b11010000 *
1%
#4740000
0%
b1 #
b1 '
#4750000
b1 "
b1 (
b10 +
b1000000 )
b1000000 *
1%
#4760000
0%
b11 #
b11 '
#4770000
b0 "
b0 (
b11 +
b11010000 )
b0 *
1%
#4780000
0%
b1 #
b1 '
#4790000
b1 "
b1 (
b0 +
b11 ,
b1110100 )
1%
#4800000
0%
b0 #
b0 '
b100001 -
#4810000
b11 "
b11 (
b1 +
b11010000 )
1%
#4820000
0%
b1 #
b1 '
#4830000
b1 "
b1 (
b10 +
b1000000 *
b1000000 )
1%
#4840000
0%
b11 #
b11 '
#4850000
b0 "
b0 (
b11 +
b11010000 *
b0 )
1%
#4860000
0%
b1 #
b1 '
#4870000
b1 "
b1 (
b0 +
b10 ,
b1110100 *
1%
#4880000
0%
b0 #
b0 '
b100010 -
#4890000
b11 "
b11 (
b1 +
b11010000 *
1%
#4900000
0%
b1 #
b1 '
#4910000
b1 "
b1 (
b10 +
b1000000 )
b1000000 *
1%
#4920000
0%
b11 #
b11 '
#4930000
b0 "
b0 (
b11 +
b11010000 )
b0 *
1%
#4940000
0%
b1 #
b1 '
#4950000
b1 "
b1 (
b0 +
b11 ,
b1110100 )
1%
#4960000
0%
b0 #
b0 '
b100011 -
#4970000
b11 "
b11 (
b1 +
b11010000 )
1%
#4980000
0%
b1 #
b1 '
#4990000
b1 "
b1 (
b10 +
b1000000 *
b1000000 )
1%
#5000000
0%
b11 #
b11 '
#5010000
b0 "
b0 (
b11 +
b11010000 *
b0 )
1%
#5020000
0%
b1 #
b1 '
#5030000
b1 "
b1 (
b0 +
b10 ,
b1110100 *
1%
#5040000
0%
b0 #
b0 '
b100100 -
#5050000
b11 "
b11 (
b1 +
b11010000 *
1%
#5060000
0%
b1 #
b1 '
#5070000
b1 "
b1 (
b10 +
b1000000 )
b1000000 *
1%
#5080000
0%
b11 #
b11 '
#5090000
b0 "
b0 (
b11 +
b11010000 )
b0 *
1%
#5100000
0%
b1 #
b1 '
#5110000
b1 "
b1 (
b0 +
b11 ,
b1110100 )
1%
#5120000
0%
b0 #
b0 '
b100101 -
#5130000
b11 "
b11 (
b1 +
b11010000 )
1%
#5140000
0%
b1 #
b1 '
#5150000
b1 "
b1 (
b10 +
b1000000 *
b1000000 )
1%
#5160000
0%
b11 #
b11 '
#5170000
b0 "
b0 (
b11 +
b11010000 *
b0 )
1%
#5180000
0%
b1 #
b1 '
#5190000
b1 "
b1 (
b0 +
b10 ,
b1110100 *
1%
#5200000
0%
b0 #
b0 '
b100110 -
#5210000
b11 "
b11 (
b1 +
b11010000 *
1%
#5220000
0%
b1 #
b1 '
#5230000
b1 "
b1 (
b10 +
b1000000 )
b1000000 *
1%
#5240000
0%
b11 #
b11 '
#5250000
b0 "
b0 (
b11 +
b11010000 )
b0 *
1%
#5260000
0%
b1 #
b1 '
#5270000
b1 "
b1 (
b0 +
b11 ,
b1110100 )
1%
#5280000
0%
b0 #
b0 '
b100111 -
#5290000
b11 "
b11 (
b1 +
b11010000 )
1%
#5300000
0%
b1 #
b1 '
#5310000
b1 "
b1 (
b10 +
b1000000 *
b1000000 )
1%
#5320000
0%
b11 #
b11 '
#5330000
b0 "
b0 (
b11 +
b11010000 *
b0 )
1%
#5340000
0%
b1 #
b1 '
#5350000
b1 "
b1 (
b0 +
b10 ,
b1110100 *
1%
#5360000
0%
b0 #
b0 '
b101000 -
#5370000
b11 "
b11 (
b1 +
b11010000 *
1%
#5380000
0%
b1 #
b1 '
#5390000
b1 "
b1 (
b10 +
b1000000 )
b1000000 *
1%
#5400000
0%
b11 #
b11 '
#5410000
b0 "
b0 (
b11 +
b11010000 )
b0 *
1%
#5420000
0%
b1 #
b1 '
#5430000
b1 "
b1 (
b0 +
b11 ,
b1110100 )
1%
#5440000
0%
b0 #
b0 '
b101001 -
#5450000
b11 "
b11 (
b1 +
b11010000 )
1%
#5460000
0%
b1 #
b1 '
#5470000
b1 "
b1 (
b10 +
b1000000 *
b1000000 )
1%
#5480000
0%
b11 #
b11 '
#5490000
b0 "
b0 (
b11 +
b11010000 *
b0 )
1%
#5500000
0%
b1 #
b1 '
#5510000
b1 "
b1 (
b0 +
b10 ,
b1110100 *
1%
#5520000
0%
b0 #
b0 '
b101010 -
#5530000
b11 "
b11 (
b1 +
b11010000 *
1%
#5540000
0%
b1 #
b1 '
#5550000
b1 "
b1 (
b10 +
b1000000 )
b1000000 *
1%
#5560000
0%
b11 #
b11 '
#5570000
b0 "
b0 (
b11 +
b11010000 )
b0 *
1%
#5580000
0%
b1 #
b1 '
#5590000
b1 "
b1 (
b0 +
b11 ,
b1110100 )
1%
#5600000
0%
b0 #
b0 '
b101011 -
#5610000
b11 "
b11 (
b1 +
b11010000 )
1%
#5620000
0%
b1 #
b1 '
#5630000
b1 "
b1 (
b10 +
b1000000 *
b1000000 )
1%
#5640000
0%
b11 #
b11 '
#5650000
b0 "
b0 (
b11 +
b11010000 *
b0 )
1%
#5660000
0%
b1 #
b1 '
#5670000
b1 "
b1 (
b0 +
b10 ,
b1110100 *
1%
#5680000
0%
b0 #
b0 '
b101100 -
#5690000
b11 "
b11 (
b1 +
b11010000 *
1%
#5700000
0%
b1 #
b1 '
#5710000
b1 "
b1 (
b10 +
b1000000 )
b1000000 *
1%
#5720000
0%
b11 #
b11 '
#5730000
b0 "
b0 (
b11 +
b11010000 )
b0 *
1%
#5740000
0%
b1 #
b1 '
#5750000
b1 "
b1 (
b0 +
b11 ,
b1110100 )
1%
#5760000
0%
b0 #
b0 '
b101101 -
#5770000
b11 "
b11 (
b1 +
b11010000 )
1%
#5780000
0%
b1 #
b1 '
#5790000
b1 "
b1 (
b10 +
b1000000 *
b1000000 )
1%
#5800000
0%
b11 #
b11 '
#5810000
b0 "
b0 (
b11 +
b11010000 *
b0 )
1%
#5820000
0%
b1 #
b1 '
#5830000
b1 "
b1 (
b0 +
b10 ,
b1110100 *
1%
#5840000
0%
b0 #
b0 '
b101110 -
#5850000
b11 "
b11 (
b1 +
b11010000 *
1%
#5860000
0%
b1 #
b1 '
#5870000
b1 "
b1 (
b10 +
b1000000 )
b1000000 *
1%
#5880000
0%
b11 #
b11 '
#5890000
b0 "
b0 (
b11 +
b11010000 )
b0 *
1%
#5900000
0%
b1 #
b1 '
#5910000
b1 "
b1 (
b0 +
b11 ,
b1110100 )
1%
#5920000
0%
b0 #
b0 '
b101111 -
#5930000
b11 "
b11 (
b1 +
b11010000 )
1%
#5940000
0%
b1 #
b1 '
#5950000
b1 "
b1 (
b10 +
b1000000 *
b1000000 )
1%
#5960000
0%
b11 #
b11 '
#5970000
b0 "
b0 (
b11 +
b11010000 *
b0 )
1%
#5980000
0%
b1 #
b1 '
#5990000
b1 "
b1 (
b0 +
b10 ,
b1110100 *
1%
#6000000
0%
b0 #
b0 '
b110000 -
#6010000
b11 "
b11 (
b1 +
b11010000 *
1%
#6020000
0%
b1 #
b1 '
#6030000
b1 "
b1 (
b10 +
b1000000 )
b1000000 *
1%
#6040000
0%
b11 #
b11 '
#6050000
b0 "
b0 (
b11 +
b11010000 )
b0 *
1%
#6060000
0%
b1 #
b1 '
#6070000
b1 "
b1 (
b0 +
b11 ,
b1110100 )
1%
#6080000
0%
b0 #
b0 '
b110001 -
#6090000
b11 "
b11 (
b1 +
b11010000 )
1%
#6100000
0%
b1 #
b1 '
#6110000
b1 "
b1 (
b10 +
b1000000 *
b1000000 )
1%
#6120000
0%
b11 #
b11 '
#6130000
b0 "
b0 (
b11 +
b11010000 *
b0 )
1%
#6140000
0%
b1 #
b1 '
#6150000
b1 "
b1 (
b0 +
b10 ,
b1110100 *
1%
#6160000
0%
b0 #
b0 '
b110010 -
#6170000
b11 "
b11 (
b1 +
b11010000 *
1%
#6180000
0%
b1 #
b1 '
#6190000
b1 "
b1 (
b10 +
b1000000 )
b1000000 *
1%
#6200000
0%
b11 #
b11 '
#6210000
b0 "
b0 (
b11 +
b11010000 )
b0 *
1%
#6220000
0%
b1 #
b1 '
#6230000
b1 "
b1 (
b0 +
b11 ,
b1110100 )
1%
#6240000
0%
b0 #
b0 '
b110011 -
#6250000
b11 "
b11 (
b1 +
b11010000 )
1%
#6260000
0%
b1 #
b1 '
#6270000
b1 "
b1 (
b10 +
b1000000 *
b1000000 )
1%
#6280000
0%
b11 #
b11 '
#6290000
b0 "
b0 (
b11 +
b11010000 *
b0 )
1%
#6300000
0%
b1 #
b1 '
#6310000
b1 "
b1 (
b0 +
b10 ,
b1110100 *
1%
#6320000
0%
b0 #
b0 '
b110100 -
#6330000
b11 "
b11 (
b1 +
b11010000 *
1%
#6340000
0%
b1 #
b1 '
#6350000
b1 "
b1 (
b10 +
b1000000 )
b1000000 *
1%
#6360000
0%
b11 #
b11 '
#6370000
b0 "
b0 (
b11 +
b11010000 )
b0 *
1%
#6380000
0%
b1 #
b1 '
#6390000
b1 "
b1 (
b0 +
b11 ,
b1110100 )
1%
#6400000
0%
b0 #
b0 '
b110101 -
#6410000
b11 "
b11 (
b1 +
b11010000 )
1%
#6420000
0%
b1 #
b1 '
#6430000
b1 "
b1 (
b10 +
b1000000 *
b1000000 )
1%
#6440000
0%
b11 #
b11 '
#6450000
b0 "
b0 (
b11 +
b11010000 *
b0 )
1%
#6460000
0%
b1 #
b1 '
#6470000
b1 "
b1 (
b0 +
b10 ,
b1110100 *
1%
#6480000
0%
b0 #
b0 '
b110110 -
#6490000
b11 "
b11 (
b1 +
b11010000 *
1%
#6500000
0%
b1 #
b1 '
#6510000
b1 "
b1 (
b10 +
b1000000 )
b1000000 *
1%
#6520000
0%
b11 #
b11 '
