cksum.vcd
$date
	Thu Oct 27 16:47:08 2022
$end
$version
	Icarus Verilog
$end
$timescale
	1ps
$end
$scope module cksum_tb $end
$var wire 1 ! kill $end
$var wire 1 " done $end
$var reg 2 # axiid [1:0] $end
$var reg 1 $ axiiv $end
$var reg 1 % clk $end
$var reg 168 & msg [167:0] $end
$var reg 1 ' rst $end
$var reg 32 ( sum [31:0] $end
$scope module fcs $end
$var wire 2 ) axiid [1:0] $end
$var wire 1 $ axiiv $end
$var wire 1 % clk $end
$var wire 1 * crc_axiov $end
$var wire 1 + crc_rst $end
$var wire 1 ' rst $end
$var wire 32 , crc_axiod [31:0] $end
$var reg 1 " done $end
$var reg 1 ! kill $end
$var reg 1 - old_axiiv $end
$scope module crc $end
$var wire 2 . axiid [1:0] $end
$var wire 1 $ axiiv $end
$var wire 32 / axiod [31:0] $end
$var wire 1 * axiov $end
$var wire 1 % clk $end
$var wire 1 + rst $end
$var reg 32 0 caxiod [31:0] $end
$var reg 32 1 saxiod [31:0] $end
$var integer 32 2 i [31:0] $end
$upscope $end
$upscope $end
$scope begin $ivl_for_loop0 $end
$var integer 32 3 i [31:0] $end
$upscope $end
$scope begin $ivl_for_loop1 $end
$var integer 32 4 i [31:0] $end
$upscope $end
$scope begin $ivl_for_loop2 $end
$var integer 32 5 i [31:0] $end
$upscope $end
$scope begin $ivl_for_loop3 $end
$var integer 32 6 i [31:0] $end
$upscope $end
$upscope $end
$enddefinitions $end
#0
$dumpvars
bx 6
bx 5
bx 4
bx 3
b100000 2
bx 1
bx 0
bx /
b0 .
x-
bx ,
x+
1*
b0 )
bx (
0'
bx &
0%
0$
b0 #
x"
x!
$end
#10000
0+
0-
1%
#20000
0%
#30000
1%
#40000
1+
0%
1'
#50000
b11110010101111001101100100100101 1
b100000 2
b0 ,
b0 /
b11111111111111111111111111111111 0
0!
0"
1%
#60000
0+
0%
0'
#70000
1%
#80000
0%
#90000
1%
#100000
b11110110011111011100010010010010 1
b100000 2
0%
b10 #
b10 )
b10 .
1$
#110000
b11010000011101010010100100100110 1
b100000 2
b1001100000100011101101101101 ,
b1001100000100011101101101101 /
1-
b11110110011111011100010010010010 0
1%
#120000
1+
0%
0$
#130000
0+
b11110110011111011100010010010010 1
b100000 2
b0 ,
b0 /
b11111111111111111111111111111111 0
1!
1"
0-
1%
#140000
0%
#150000
1%
#160000
0%
#170000
1%
#180000
0%
#190000
1%
#200000
b11111011001111101110001001001011 1
b100000 2
0%
b1 #
b1 )
b1 .
1$
b0 3
b10011000010111001001110010011110010010000100100000010000100111001001100101011000010110101101100110011000010111001101110100001000000111010001101001011011010110010101 &
#210000
b11101000001110101001010010011011 1
b100000 2
b100110000010001110110110100 ,
b100110000010001110110110100 /
b11111011001111101110001001001011 0
0!
0"
1-
1%
#220000
b11100001101110001010111111110101 1
b100000 2
0%
b1001100001011100100111001001111001001000010010000001000010011100100110010101100001011010110110011001100001011100110111010000100000011101000110100101101101011001010100 &
b0 #
b0 )
b0 .
b10 3
#230000
b10001011101000011001100100001101 1
b100000 2
b11110010001110101000000001010 ,
b11110010001110101000000001010 /
b11100001101110001010111111110101 0
1%
#240000
0%
b100110000101110010011100100111100100100001001000000100001001110010011001010110000101101011011001100110000101110011011101000010000001110100011010010110110101100101010000 &
b100 3
#250000
b100111000001000101111101011010 1
b100000 2
b1110100010111100110011011110010 ,
b1110100010111100110011011110010 /
b10001011101000011001100100001101 0
1%
#260000
b100011110001010100001011101101 1
b100000 2
0%
b11000010111001001110010011110010010000100100000010000100111001001100101011000010110101101100110011000010111001101110100001000000111010001101001011011010110010101000010 &
b10 #
b10 )
b10 .
b110 3
#270000
b10001011110101000001011000000011 1
b100000 2
b11011100001110101011110100010010 ,
b11011100001110101011110100010010 /
b100011110001010100001011101101 0
1%
#280000
b10000110100101110011000011011010 1
b100000 2
0%
b100001011100100111001001111001001000010010000001000010011100100110010101100001011010110110011001100001011100110111010000100000011101000110100101101101011001010100001001 &
b1 #
b1 )
b1 .
b1000 3
#290000
b11010010111001100001101101000 1
b100000 2
b1111001011010001100111100100101 ,
b1111001011010001100111100100101 /
b10000110100101110011000011011010 0
1%
#300000
b10111000111111110010110110001 1
b100000 2
0%
b101110010011100100111100100100001001000000100001001110010011001010110000101101011011001100110000101110011011101000010000001110100011010010110110101100101010000100110 &
b10 #
b10 )
b10 .
b1010 3
#310000
b1011000101111101000101101110011 1
b100000 2
b11101000111000000001101001001110 ,
b11101000111000000001101001001110 /
b10111000111111110010110110001 0
1%
#320000
b1011100011111111001011011000100 1
b100000 2
0%
b10111001001110010011110010010000100100000010000100111001001100101011000010110101101100110011000010111001101110100001000000111010001101001011011010110010101000010011000 &
b0 #
b0 )
b0 .
b1100 3
#330000
b1110101001111110100011010100111 1
b100000 2
b10100011100000000110100100111011 ,
b10100011100000000110100100111011 /
b1011100011111111001011011000100 0
1%
#340000
b1111100101111010111110111001001 1
b100000 2
0%
b11100100111001001111001001000010010000001000010011100100110010101100001011010110110011001100001011100110111010000100000011101000110100101101101011001010100001001100001 &
b1 #
b1 )
b1 .
b1110 3
#350000
b11111111101101101101000111111101 1
b100000 2
b10000011010000101000001000110110 ,
b10000011010000101000001000110110 /
b1111100101111010111110111001001 0
1%
#360000
0%
b110010011100100111100100100001001000000100001001110010011001010110000101101011011001100110000101110011011101000010000001110100011010010110110101100101010000100110000101 &
b10000 3
#370000
b11111010000110100101101001000011 1
b100000 2
b10010010010111000000010 ,
b10010010010111000000010 /
b11111111101101101101000111111101 0
1%
#380000
b11111110110110110100011111110100 1
b100000 2
0%
b1001110010011110010010000100100000010000100111001001100101011000010110101101100110011000010111001101110100001000000111010001101001011011010110010101000010011000010111 &
b11 #
b11 )
b11 .
b10010 3
#390000
b11111011011011010001111111010000 1
b100000 2
b1001001001011100000001011 ,
b1001001001011100000001011 /
b11111110110110110100011111110100 0
1%
#400000
b11110110001011100011100100001001 1
b100000 2
0%
b100111001001111001001000010010000001000010011100100110010101100001011010110110011001100001011100110111010000100000011101000110100101101101011001010100001001100001011100 &
b0 #
b0 )
b0 .
b10100 3
#410000
b11010101111110111100001011111101 1
b100000 2
b1001110100011100011011110110 ,
b1001110100011100011011110110 /
b11110110001011100011100100001001 0
1%
#420000
b11010001001110101101111101001010 1
b100000 2
0%
b11100100111100100100001001000000100001001110010011001010110000101101011011001100110000101110011011101000010000001110100011010010110110101100101010000100110000101110010 &
b10 #
b10 )
b10 .
b10110 3
#430000
b1001101011010010100011001000110 1
b100000 2
b101110110001010010000010110101 ,
b101110110001010010000010110101 /
b11010001001110101101111101001010 0
1%
#440000
b1000000001010100110000010011111 1
b100000 2
0%
b110010011110010010000100100000010000100111001001100101011000010110101101100110011000010111001101110100001000000111010001101001011011010110010101000010011000010111001001 &
b1 #
b1 )
b1 .
b11000 3
#450000
b1101111010101010010010100101 1
b100000 2
b10111111110101011001111101100000 ,
b10111111110101011001111101100000 /
b1000000001010100110000010011111 0
1%
#460000
b1001001010111011100100010010 1
b100000 2
0%
b1001111001001000010010000001000010011100100110010101100001011010110110011001100001011100110111010000100000011101000110100101101101011001010100001001100001011100100111 &
b11 #
b11 )
b11 .
b11010 3
#470000
b101001111011011100001010010001 1
b100000 2
b11110110110101000100011011101101 ,
b11110110110101000100011011101101 /
b1001001010111011100100010010 0
1%
#480000
b100100101011101110010001001000 1
b100000 2
0%
b100111100100100001001000000100001001110010011001010110000101101011011001100110000101110011011101000010000001110100011010010110110101100101010000100110000101110010011100 &
b0 #
b0 )
b0 .
b11100 3
#490000
b10010010101110111001000100100000 1
b100000 2
b11011011010100010001101110110111 ,
b11011011010100010001101110110111 /
b100100101011101110010001001000 0
1%
#500000
b10010110011110101000110010010111 1
b100000 2
0%
b11110010010000100100000010000100111001001100101011000010110101101100110011000010111001101110100001000000111010001101001011011010110010101000010011000010111001001110010 &
b10 #
b10 )
b10 .
b11110 3
#510000
b1010100101010010001010010000101 1
b100000 2
b1101001100001010111001101101000 ,
b1101001100001010111001101101000 /
b10010110011110101000110010010111 0
1%
#520000
b1011001111010100011001001011100 1
b100000 2
0%
b111001001000010010000001000010011100100110010101100001011010110110011001100001011100110111010000100000011101000110100101101101011001010100001001100001011100100111001001 &
b1 #
b1 )
b1 .
b100000 3
#530000
b1101010111010111110111110101001 1
b100000 2
b10100110000101011100110110100011 ,
b10100110000101011100110110100011 /
b1011001111010100011001001011100 0
1%
#540000
b1101110001010101111001000011110 1
b100000 2
0%
b100100100001001000000100001001110010011001010110000101101011011001100110000101110011011101000010000001110100011010010110110101100101010000100110000101110010011100100111 &
b11 #
b11 )
b11 .
b100010 3
#550000
b10110001001010011111001100010110 1
b100000 2
b10010001110101010000110111100001 ,
b10010001110101010000110111100001 /
b1101110001010101111001000011110 0
1%
#560000
b10111000101010111100100001111000 1
b100000 2
0%
b10010000100100000010000100111001001100101011000010110101101100110011000010111001101110100001000000111010001101001011011010110010101000010011000010111001001110010011110 &
b10 #
b10 )
b10 .
b100100 3
#570000
b11101111111011000000011100111001 1
b100000 2
b1000111010101000011011110000111 ,
b1000111010101000011011110000111 /
b10111000101010111100100001111000 0
1%
#580000
b11100010101011110010000111100000 1
b100000 2
0%
b1000010010000001000010011100100110010101100001011010110110011001100001011100110111010000100000011101000110100101101101011001010100001001100001011100100111001001111001 &
b1 #
b1 )
b1 .
b100110 3
#590000
b10001110011111011001101000110111 1
b100000 2
b11101010100001101111000011111 ,
b11101010100001101111000011111 /
b11100010101011110010000111100000 0
1%
#600000
b10000111111111111010000101011001 1
b100000 2
0%
b100001001000000100001001110010011001010110000101101011011001100110000101110011011101000010000001110100011010010110110101100101010000100110000101110010011100100111100100 &
b0 #
b0 )
b0 .
b101000 3
#610000
b10110011111001011111000001010 1
b100000 2
b1111000000000000101111010100110 ,
b1111000000000000101111010100110 /
b10000111111111111010000101011001 0
1%
#620000
b10010101111011010001110111101 1
b100000 2
0%
b100100000010000100111001001100101011000010110101101100110011000010111001101110100001000000111010001101001011011010110010101000010011000010111001001110010011110010010 &
b10 #
b10 )
b10 .
b101010 3
#630000
b1001110001101111001001101000011 1
b100000 2
b11101101010000100101110001000010 ,
b11101101010000100101110001000010 /
b10010101111011010001110111101 0
1%
#640000
b1001010111101101000111011110100 1
b100000 2
0%
b10010000001000010011100100110010101100001011010110110011001100001011100110111010000100000011101000110100101101101011001010100001001100001011100100111001001111001001000 &
b0 #
b0 )
b0 .
b101100 3
#650000
b101111000110110010011001100111 1
b100000 2
b10110101000010010111000100001011 ,
b10110101000010010111000100001011 /
b1001010111101101000111011110100 0
1%
#660000
b100110100110010001110100001001 1
b100000 2
0%
b1000000100001001110010011001010110000101101011011001100110000101110011011101000010000001110100011010010110110101100101010000100110000101110010011100100111100100100001 &
b1 #
b1 )
b1 .
b101110 3
#670000
b10010011111001100100111101001010 1
b100000 2
b11011001011001101110001011110110 ,
b11011001011001101110001011110110 /
b100110100110010001110100001001 0
1%
#680000
b10011010011001000111010000100100 1
b100000 2
0%
b100000010000100111001001100101011000010110101101100110011000010111001101110100001000000111010001101001011011010110010101000010011000010111001001110010011110010010000100 &
b0 #
b0 )
b0 .
b110000 3
#690000
b1100000000100111110101111111110 1
b100000 2
b1100101100110111000101111011011 ,
b1100101100110111000101111011011 /
b10011010011001000111010000100100 0
1%
#700000
b1100100110100101111011001001001 1
b100000 2
0%
b1000010011100100110010101100001011010110110011001100001011100110111010000100000011101000110100101101101011001010100001001100001011100100111001001111001001000010010 &
b10 #
b10 )
b10 .
b110010 3
#710000
b10010011010010111101100100100100 1
b100000 2
b10011011001011010000100110110110 ,
b10011011001011010000100110110110 /
b1100100110100101111011001001001 0
1%
#720000
b10010111100010101100010010010011 1
b100000 2
0%
b100001001110010011001010110000101101011011001100110000101110011011101000010000001110100011010010110110101100101010000100110000101110010011100100111100100100001001000 &
b0 #
b0 )
b0 .
b110100 3
#730000
b1010111101010010010100100100010 1
b100000 2
b1101000011101010011101101101100 ,
b1101000011101010011101101101100 /
b10010111100010101100010010010011 0
1%
#740000
0%
b10000100111001001100101011000010110101101100110011000010111001101110100001000000111010001101001011011010110010101000010011000010111001001110010011110010010000100100000 &
b110110 3
#750000
b1011010011001011011100100111111 1
b100000 2
b10101000010101101101011011011101 ,
b10101000010101101101011011011101 /
b1010111101010010010100100100010 0
1%
#760000
b1010011111001111000001001010001 1
b100000 2
0%
b10011100100110010101100001011010110110011001100001011100110111010000100000011101000110100101101101011001010100001001100001011100100111001001111001001000010010000001 &
b1 #
b1 )
b1 .
b111000 3
#770000
b1000010110111010010111110011101 1
b100000 2
b10101100000110000111110110101110 ,
b10101100000110000111110110101110 /
b1010011111001111000001001010001 0
1%
#780000
b1001011010111110001010011110011 1
b100000 2
0%
b1001110010011001010110000101101011011001100110000101110011011101000010000001110100011010010110110101100101010000100110000101110010011100100111100100100001001000000100 &
b0 #
b0 )
b0 .
b111010 3
#790000
b101001101111010100111001111011 1
b100000 2
b10110100101000001110101100001100 ,
b10110100101000001110101100001100 /
b1001011010111110001010011110011 0
1%
#800000
0%
b100111001001100101011000010110101101100110011000010111001101110100001000000111010001101001011011010110010101000010011000010111001001110010011110010010000100100000010000 &
b111100 3
#810000
b10100110111101010011100111101100 1
b100000 2
b11010110010000101011000110000100 ,
b11010110010000101011000110000100 /
b101001101111010100111001111011 0
1%
#820000
b10100010001101000010010001011011 1
b100000 2
0%
b11100100110010101100001011010110110011001100001011100110111010000100000011101000110100101101101011001010100001001100001011100100111001001111001001000010010000001000010 &
b10 #
b10 )
b10 .
b111110 3
#830000
b10000101100100111011011110110101 1
b100000 2
b1011101110010111101101110100100 ,
b1011101110010111101101110100100 /
b10100010001101000010010001011011 0
1%
#840000
b10001000110100001001000101101100 1
b100000 2
0%
b110010011001010110000101101011011001100110000101110011011101000010000001110100011010010110110101100101010000100110000101110010011100100111100100100001001000000100001001 &
b1 #
b1 )
b1 .
b1000000 3
#850000
b100011010000100100010110110000 1
b100000 2
b1110111001011110110111010010011 ,
b1110111001011110110111010010011 /
b10001000110100001001000101101100 0
1%
#860000
b100111100000110101100000000111 1
b100000 2
0%
b1001100101011000010110101101100110011000010111001101110100001000000111010001101001011011010110010101000010011000010111001001110010011110010010000100100000010000100111 &
b11 #
b11 )
b11 .
b1000010 3
#870000
b10010011010011100100011011000101 1
b100000 2
b11011000011111001010011111111000 ,
b11011000011111001010011111111000 /
b100111100000110101100000000111 0
1%
#880000
b10011110000011010110000000011100 1
b100000 2
0%
b100110010101100001011010110110011001100001011100110111010000100000011101000110100101101101011001010100001001100001011100100111001001111001001000010010000001000010011100 &
b0 #
b0 )
b0 .
b1000100 3
#890000
b1110001101101111011101100011110 1
b100000 2
b1100001111100101001111111100011 ,
b1100001111100101001111111100011 /
b10011110000011010110000000011100 0
1%
#900000
b1110101011101101010011010101001 1
b100000 2
0%
b11001010110000101101011011001100110000101110011011101000010000001110100011010010110110101100101010000100110000101110010011100100111100100100001001000000100001001110010 &
b10 #
b10 )
b10 .
b1000110 3
#910000
b11010101110110101001101010100100 1
b100000 2
b10001010100010010101100101010110 ,
b10001010100010010101100101010110 /
b1110101011101101010011010101001 0
1%
#920000
b11011000100110011011110001111101 1
b100000 2
0%
b100101011000010110101101100110011000010111001101110100001000000111010001101001011011010110010101000010011000010111001001110010011110010010000100100000010000100111001001 &
b1 #
b1 )
b1 .
b1001000 3
#930000
b1100110101001111110110001000011 1
b100000 2
b100111011001100100001110000010 ,
b100111011001100100001110000010 /
b11011000100110011011110001111101 0
1%
#940000
b1101011111001001100101010011010 1
b100000 2
0%
b10101100001011010110110011001100001011100110111010000100000011101000110100101101101011001010100001001100001011100100111001001111001001000010010000001000010011100100110 &
b10 #
b10 )
b10 .
b1001010 3
#950000
b10101111100100110010101001101000 1
b100000 2
b10010100000110110011010101100101 ,
b10010100000110110011010101100101 /
b1101011111001001100101010011010 0
1%
#960000
b10100010110100000000110010110001 1
b100000 2
0%
b10110000101101011011001100110000101110011011101000010000001110100011010010110110101100101010000100110000101110010011100100111100100100001001000000100001001110010011001 &
b1 #
b1 )
b1 .
b1001100 3
#970000
b10001011010000000011001011000100 1
b100000 2
b1011101001011111111001101001110 ,
b1011101001011111111001101001110 /
b10100010110100000000110010110001 0
1%
#980000
0%
b11000010110101101100110011000010111001101110100001000000111010001101001011011010110010101000010011000010111001001110010011110010010000100100000010000100111001001100101 &
b1001110 3
#990000
b101101000000001100101100010000 1
b100000 2
b1110100101111111100110100111011 ,
b1110100101111111100110100111011 /
b10001011010000000011001011000100 0
1%
#1000000
0%
b100001011010110110011001100001011100110111010000100000011101000110100101101101011001010100001001100001011100100111001001111001001000010010000001000010011100100110010101 &
b1010000 3
#1010000
b10111101100000010001011100101110 1
b100000 2
b11010010111111110011010011101111 ,
b11010010111111110011010011101111 /
b101101000000001100101100010000 0
1%
#1020000
b10110000110000100011000111110111 1
b100000 2
0%
b101101011011001100110000101110011011101000010000001110100011010010110110101100101010000100110000101110010011100100111100100100001001000000100001001110010011001010110 &
b10 #
b10 )
b10 .
b1010010 3
#1030000
b11001110010010111110000100000101 1
b100000 2
b1001111001111011100111000001000 ,
b1001111001111011100111000001000 /
b10110000110000100011000111110111 0
1%
#1040000
b11001010100010101111110010110010 1
b100000 2
0%
b10110101101100110011000010111001101110100001000000111010001101001011011010110010101000010011000010111001001110010011110010010000100100000010000100111001001100101011000 &
b0 #
b0 )
b0 .
b1010100 3
#1050000
b100111011010001101010000010001 1
b100000 2
b110101011101010000001101001101 ,
b110101011101010000001101001101 /
b11001010100010101111110010110010 0
1%
#1060000
b101110111010101110111101111111 1
b100000 2
0%
b11010110110011001100001011100110111010000100000011101000110100101101101011001010100001001100001011100100111001001111001001000010010000001000010011100100110010101100001 &
b1 #
b1 )
b1 .
b1010110 3
#1070000
b10110010001010011000011010010010 1
b100000 2
b11010001000101010001000010000000 ,
b11010001000101010001000010000000 /
b101110111010101110111101111111 0
1%
#1080000
0%
b101011011001100110000101110011011101000010000001110100011010010110110101100101010000100110000101110010011100100111100100100001001000000100001001110010011001010110000101 &
b1011000 3
#1090000
b11001000101001100001101001001000 1
b100000 2
b1001101110101100111100101101101 ,
b1001101110101100111100101101101 /
b10110010001010011000011010010010 0
1%
#1100000
b11000101111001010011110010010001 1
b100000 2
0%
b101101100110011000010111001101110100001000000111010001101001011011010110010101000010011000010111001001110010011110010010000100100000010000100111001001100101011000010110 &
b10 #
b10 )
b10 .
b1011010 3
#1110000
b11110000101101100100100101010 1
b100000 2
b111010000110101100001101101110 ,
b111010000110101100001101101110 /
b11000101111001010011110010010001 0
1%
#1120000
0%
b110110011001100001011100110111010000100000011101000110100101101101011001010100001001100001011100100111001001111001001000010010000001000010011100100110010101100001011010 &
b1011100 3
#1130000
b1111100100110100011100100011111 1
b100000 2
b11100001111010010011011011010101 ,
b11100001111010010011011011010101 /
b11110000101101100100100101010 0
1%
#1140000
b1110101000110000000001001110001 1
b100000 2
0%
b11001100110000101110011011101000010000001110100011010010110110101100101010000100110000101110010011100100111100100100001001000000100001001110010011001010110000101101011 &
b11 #
b11 )
b11 .
b1011110 3
#1150000
b11011101111000100011001010101010 1
b100000 2
b10001010111001111111110110001110 ,
b10001010111001111111110110001110 /
b1110101000110000000001001110001 0
1%
#1160000
b11011001001000110010111100011101 1
b100000 2
0%
b100110011000010111001101110100001000000111010001101001011011010110010101000010011000010111001001110010011110010010000100100000010000100111001001100101011000010110101101 &
b1 #
b1 )
b1 .
b1100000 3
#1170000
b1100000010011011010000111000011 1
b100000 2
b100110110111001101000011100010 ,
b100110110111001101000011100010 /
b11011001001000110010111100011101 0
1%
#1180000
b1101101000011101000011100011010 1
b100000 2
0%
b11001100001011100110111010000100000011101000110100101101101011001010100001001100001011100100111001001111001001000010010000001000010011100100110010101100001011010110110 &
b10 #
b10 )
b10 .
b1100010 3
#1190000
b10110100001110100001110001101000 1
b100000 2
b10010010111100010111100011100101 ,
b10010010111100010111100011100101 /
b1101101000011101000011100011010 0
1%
#1200000
b10111001011110010011101010110001 1
b100000 2
0%
b100110000101110011011101000010000001110100011010010110110101100101010000100110000101110010011100100111100100100001001000000100001001110010011001010110000101101011011001 &
b1 #
b1 )
b1 .
b1100100 3
#1210000
b11100101111001001110101011000100 1
b100000 2
b1000110100001101100010101001110 ,
b1000110100001101100010101001110 /
b10111001011110010011101010110001 0
1%
#1220000
b11101000101001111100110000011101 1
b100000 2
0%
b11000010111001101110100001000000111010001101001011011010110010101000010011000010111001001110010011110010010000100100000010000100111001001100101011000010110101101100110 &
b10 #
b10 )
b10 .
b1100110 3
#1230000
b10101011000111010000101100011010 1
b100000 2
b10111010110000011001111100010 ,
b10111010110000011001111100010 /
b11101000101001111100110000011101 0
1%
#1240000
b10100110010111100010110111000011 1
b100000 2
0%
b100001011100110111010000100000011101000110100101101101011001010100001001100001011100100111001001111001001000010010000001000010011100100110010101100001011010110110011001 &
b1 #
b1 )
b1 .
b1101000 3
#1250000
b10011001011110001011011100001100 1
b100000 2
b1011001101000011101001000111100 ,
b1011001101000011101001000111100 /
b10100110010111100010110111000011 0
1%
#1260000
b10010100001110111001000111010101 1
b100000 2
0%
b101110011011101000010000001110100011010010110110101100101010000100110000101110010011100100111100100100001001000000100001001110010011001010110000101101011011001100110 &
b10 #
b10 )
b10 .
b1101010 3
#1270000
b1011101101011010110000110001101 1
b100000 2
b1101011110001000110111000101010 ,
b1101011110001000110111000101010 /
b10010100001110111001000111010101 0
1%
#1280000
b1011001011011000111110000111010 1
b100000 2
0%
b10111001101110100001000000111010001101001011011010110010101000010011000010111001001110010011110010010000100100000010000100111001001100101011000010110101101100110011000 &
b0 #
b0 )
b0 .
b1101100 3
#1290000
b1100001011100001110110101011111 1
b100000 2
b10100110100100111000001111000101 ,
b10100110100100111000001111000101 /
b1011001011011000111110000111010 0
1%
#1300000
b1101000111100101101011000110001 1
b100000 2
0%
b11100110111010000100000011101000110100101101101011001010100001001100001011100100111001001111001001000010010000001000010011100100110010101100001011010110110011001100001 &
b1 #
b1 )
b1 .
b1101110 3
#1310000
b10101110100010000111111000011101 1
b100000 2
b10010111000011010010100111001110 ,
b10010111000011010010100111001110 /
b1101000111100101101011000110001 0
1%
#1320000
0%
b110011011101000010000001110100011010010110110101100101010000100110000101110010011100100111100100100001001000000100001001110010011001010110000101101011011001100110000101 &
b1110000 3
#1330000
b10111010001000011111100001110100 1
b100000 2
b1010001011101111000000111100010 ,
b1010001011101111000000111100010 /
b10101110100010000111111000011101 0
1%
#1340000
b10111110111000001110010111000011 1
b100000 2
0%
b1101110100001000000111010001101001011011010110010101000010011000010111001001110010011110010010000100100000010000100111001001100101011000010110101101100110011000010111 &
b11 #
b11 )
b11 .
b1110010 3
#1350000
b11111111010000101000101010111011 1
b100000 2
b1000001000111110001101000111100 ,
b1000001000111110001101000111100 /
b10111110111000001110010111000011 0
1%
#1360000
b11110010000000011010110001100010 1
b100000 2
0%
b110111010000100000011101000110100101101101011001010100001001100001011100100111001001111001001000010010000001000010011100100110010101100001011010110110011001100001011100 &
b0 #
b0 )
b0 .
b1110100 3
#1370000
b11000101010001011001011101010001 1
b100000 2
b1101111111100101001110011101 ,
b1101111111100101001110011101 /
b11110010000000011010110001100010 0
1%
#1380000
b11001000000001101011000110001000 1
b100000 2
0%
b11101000010000001110100011010010110110101100101010000100110000101110010011100100111100100100001001000000100001001110010011001010110000101101011011001100110000101110011 &
b11 #
b11 )
b11 .
b1110110 3
#1390000
b100000000110101100011000100000 1
b100000 2
b110111111110010100111001110111 ,
b110111111110010100111001110111 /
b11001000000001101011000110001000 0
1%
#1400000
b100100110110111101101110010111 1
b100000 2
0%
b110100001000000111010001101001011011010110010101000010011000010111001001110010011110010010000100100000010000100111001001100101011000010110101101100110011000010111001101 &
b1 #
b1 )
b1 .
b1111000 3
#1410000
b10011010111011010101010100110010 1
b100000 2
b11011011001001000010010001101000 ,
b11011011001001000010010001101000 /
b100100110110111101101110010111 0
1%
#1420000
b10011110001011000100100010000101 1
b100000 2
0%
b10000100000011101000110100101101101011001010100001001100001011100100111001001111001001000010010000001000010011100100110010101100001011010110110011001100001011100110111 &
b11 #
b11 )
b11 .
b1111010 3
#1430000
b1111100011100000011111110100011 1
b100000 2
b1100001110100111011011101111010 ,
b1100001110100111011011101111010 /
b10011110001011000100100010000101 0
1%
#1440000
b1111000101100010010001000010100 1
b100000 2
0%
b10000001110100011010010110110101100101010000100110000101110010011100100111100100100001001000000100001001110010011001010110000101101011011001100110000101110011011101 &
b1 #
b1 )
b1 .
b1111100 3
#1450000
b11101111100001111010111010001001 1
b100000 2
b10000111010011101101110111101011 ,
b10000111010011101101110111101011 /
b1111000101100010010001000010100 0
1%
#1460000
b11100110000001011001010111100111 1
b100000 2
0%
b1000000111010001101001011011010110010101000010011000010111001001110010011110010010000100100000010000100111001001100101011000010110101101100110011000010111001101110100 &
b0 #
b0 )
b0 .
b1111110 3
#1470000
b10010101010101010111000101000101 1
b100000 2
b11001111110100110101000011000 ,
b11001111110100110101000011000 /
b11100110000001011001010111100111 0
1%
#1480000
0%
b100000011101000110100101101101011001010100001001100001011100100111001001111001001000010010000001000010011100100110010101100001011010110110011001100001011100110111010000 &
b10000000 3
#1490000
b1011100110101111111111001111010 1
b100000 2
b1101010101010101000111010111010 ,
b1101010101010101000111010111010 /
b10010101010101010111000101000101 0
1%
#1500000
b1011000000101101110001111001101 1
b100000 2
0%
b1110100011010010110110101100101010000100110000101110010011100100111100100100001001000000100001001110010011001010110000101101011011001100110000101110011011101000010 &
b10 #
b10 )
b10 .
b10000010 3
#1510000
b1100000010110111000111100110100 1
b100000 2
b10100111111010010001110000110010 ,
b10100111111010010001110000110010 /
b1011000000101101110001111001101 0
1%
#1520000
b1100100100110101001001010000011 1
b100000 2
0%
b111010001101001011011010110010101000010011000010111001001110010011110010010000100100000010000100111001001100101011000010110101101100110011000010111001101110100001000 &
b0 #
b0 )
b0 .
b10000100 3
#1530000
b10010110101010110101011110111011 1
b100000 2
b10011011011001010110110101111100 ,
b10011011011001010110110101111100 /
b1100100100110101001001010000011 0
1%
#1540000
0%
b11101000110100101101101011001010100001001100001011100100111001001111001001000010010000001000010011100100110010101100001011010110110011001100001011100110111010000100000 &
b10000110 3
#1550000
b1010011001011110110010110000010 1
b100000 2
b1101001010101001010100001000100 ,
b1101001010101001010100001000100 /
b10010110101010110101011110111011 0
1%
#1560000
b1011010101011010101111011101100 1
b100000 2
0%
b110100011010010110110101100101010000100110000101110010011100100111100100100001001000000100001001110010011001010110000101101011011001100110000101110011011101000010000001 &
b1 #
b1 )
b1 .
b10001000 3
#1570000
b1100111111101100101110101101001 1
b100000 2
b10100101010100101010000100010011 ,
b10100101010100101010000100010011 /
b1011010101011010101111011101100 0
1%
#1580000
b1100011001101110100000011011110 1
b100000 2
0%
b10001101001011011010110010101000010011000010111001001110010011110010010000100100000010000100111001001100101011000010110101101100110011000010111001101110100001000000111 &
b11 #
b11 )
b11 .
b10001010 3
#1590000
b10000101010111110011100000010110 1
b100000 2
b10011100110010001011111100100001 ,
b10011100110010001011111100100001 /
b1100011001101110100000011011110 0
1%
#1600000
b10000001100111100010010110100001 1
b100000 2
0%
b110100101101101011001010100001001100001011100100111001001111001001000010010000001000010011100100110010101100001011010110110011001100001011100110111010000100000011101 &
b1 #
b1 )
b1 .
b10001100 3
#1610000
b110011110001001011010000100 1
b100000 2
b1111110011000011101101001011110 ,
b1111110011000011101101001011110 /
b10000001100111100010010110100001 0
1%
#1620000
b1111111110101010110111101010 1
b100000 2
0%
b11010010110110101100101010000100110000101110010011100100111100100100001001000000100001001110010011001010110000101101011011001100110000101110011011101000010000001110100 &
b0 #
b0 )
b0 .
b10001110 3
#1630000
b111111111010101011011110101000 1
b100000 2
b11110000000001010101001000010101 ,
b11110000000001010101001000010101 /
b1111111110101010110111101010 0
1%
#1640000
b110110011010001000110011000110 1
b100000 2
0%
b101001011011010110010101000010011000010111001001110010011110010010000100100000010000100111001001100101011000010110101101100110011000010111001101110100001000000111010001 &
b1 #
b1 )
b1 .
b10010000 3
#1650000
b11010000001000000000100001110110 1
b100000 2
b11001001100101110111001100111001 ,
b11001001100101110111001100111001 /
b110110011010001000110011000110 0
1%
#1660000
b11011101011000110010111010101111 1
b100000 2
0%
b100101101101011001010100001001100001011100100111001001111001001000010010000001000010011100100110010101100001011010110110011001100001011100110111010000100000011101000110 &
b10 #
b10 )
b10 .
b10010010 3
#1670000
b1111100000011101000000111010010 1
b100000 2
b100010100111001101000101010000 ,
b100010100111001101000101010000 /
b11011101011000110010111010101111 0
1%
#1680000
0%
b10110110101100101010000100110000101110010011100100111100100100001001000000100001001110010011001010110000101101011011001100110000101110011011101000010000001110100011010 &
b10010100 3
#1690000
b11110000001110100000011101001000 1
b100000 2
b10000011111100010111111000101101 ,
b10000011111100010111111000101101 /
b1111100000011101000000111010010 0
1%
#1700000
b11111101011110010010000110010001 1
b100000 2
0%
b11011010110010101000010011000010111001001110010011110010010000100100000010000100111001001100101011000010110101101100110011000010111001101110100001000000111010001101001 &
b1 #
b1 )
b1 .
b10010110 3
#1710000
b11110001001001011001101111110011 1
b100000 2
b10100001101101111001101110 ,
b10100001101101111001101110 /
b11111101011110010010000110010001 0
1%
#1720000
0%
b101101011001010100001001100001011100100111001001111001001000010010000001000010011100100110010101100001011010110110011001100001011100110111010000100000011101000110100101 &
b10011000 3
#1730000
b11000000010101110111001001111011 1
b100000 2
b1110110110100110010000001100 ,
b1110110110100110010000001100 /
b11110001001001011001101111110011 0
1%
#1740000
b11001101000101000101010010100010 1
b100000 2
0%
b110101100101010000100110000101110010011100100111100100100001001000000100001001110010011001010110000101101011011001100110000101110011011101000010000001110100011010010110 &
b10 #
b10 )
b10 .
b10011010 3
