ether.vcd
$date
	Wed Oct 26 20:50:21 2022
$end
$version
	Icarus Verilog
$end
$timescale
	1ps
$end
$scope module ether_tb $end
$var wire 1 ! axiov $end
$var wire 2 " axiod [1:0] $end
$var reg 1 # clk $end
$var reg 1 $ crsdv $end
$var reg 1 % rst $end
$var reg 2 & rxd [1:0] $end
$scope module eth $end
$var wire 1 ! axiov $end
$var wire 1 # clk $end
$var wire 1 $ crsdv $end
$var wire 1 % rst $end
$var wire 2 ' rxd [1:0] $end
$var wire 2 ( axiod [1:0] $end
$var reg 5 ) preamble_count [4:0] $end
$var reg 1 * received $end
$var integer 32 + state [31:0] $end
$upscope $end
$scope begin $ivl_for_loop0 $end
$var integer 32 , i [31:0] $end
$upscope $end
$scope begin $ivl_for_loop1 $end
$var integer 32 - i [31:0] $end
$upscope $end
$scope begin $ivl_for_loop10 $end
$var integer 32 . i [31:0] $end
$upscope $end
$scope begin $ivl_for_loop11 $end
$var integer 32 / i [31:0] $end
$upscope $end
$scope begin $ivl_for_loop12 $end
$var integer 32 0 i [31:0] $end
$upscope $end
$scope begin $ivl_for_loop13 $end
$var integer 32 1 i [31:0] $end
$upscope $end
$scope begin $ivl_for_loop14 $end
$var integer 32 2 i [31:0] $end
$upscope $end
$scope begin $ivl_for_loop15 $end
$var integer 32 3 i [31:0] $end
$upscope $end
$scope begin $ivl_for_loop16 $end
$var integer 32 4 i [31:0] $end
$upscope $end
$scope begin $ivl_for_loop2 $end
$var integer 32 5 i [31:0] $end
$upscope $end
$scope begin $ivl_for_loop3 $end
$var integer 32 6 i [31:0] $end
$upscope $end
$scope begin $ivl_for_loop4 $end
$var integer 32 7 i [31:0] $end
$upscope $end
$scope begin $ivl_for_loop5 $end
$var integer 32 8 i [31:0] $end
$upscope $end
$scope begin $ivl_for_loop6 $end
$var integer 32 9 i [31:0] $end
$upscope $end
$scope begin $ivl_for_loop7 $end
$var integer 32 : i [31:0] $end
$upscope $end
$scope begin $ivl_for_loop8 $end
$var integer 32 ; i [31:0] $end
$upscope $end
$scope begin $ivl_for_loop9 $end
$var integer 32 < i [31:0] $end
$upscope $end
$upscope $end
$enddefinitions $end
#0
$dumpvars
bx <
bx ;
bx :
bx 9
bx 8
bx 7
bx 6
bx 5
bx 4
bx 3
bx 2
bx 1
bx 0
bx /
bx .
bx -
bx ,
b0 +
x*
bx )
b0 (
b0 '
b0 &
0%
0$
0#
b0 "
0!
$end
#10000
1#
#20000
0#
#30000
1#
#40000
0#
1%
#50000
0*
b0 )
1#
#60000
0#
0%
#70000
1#
#80000
0#
1$
#90000
1#
#100000
0#
#110000
1#
#120000
0#
#130000
1#
#140000
0#
#150000
1#
#160000
0#
b1 &
b1 '
b0 ,
#170000
b1 )
b10 +
1#
#180000
0#
b1 ,
#190000
b10 )
1#
#200000
0#
b10 ,
#210000
b11 )
1#
#220000
0#
b11 ,
#230000
b100 )
1#
#240000
0#
b100 ,
#250000
b101 )
1#
#260000
0#
b101 ,
#270000
b110 )
1#
#280000
0#
b110 ,
#290000
b111 )
1#
#300000
0#
b111 ,
#310000
b1000 )
1#
#320000
0#
b1000 ,
#330000
b1001 )
1#
#340000
0#
b1001 ,
#350000
b1010 )
1#
#360000
0#
b1010 ,
#370000
b1011 )
1#
#380000
0#
b1011 ,
#390000
b1100 )
1#
#400000
0#
b1100 ,
#410000
b1101 )
1#
#420000
0#
b1101 ,
#430000
b1110 )
1#
#440000
0#
b1110 ,
#450000
b1111 )
1#
#460000
0#
b1111 ,
#470000
b10000 )
1#
#480000
0#
b10000 ,
#490000
b10001 )
1#
#500000
0#
b10001 ,
#510000
b10010 )
1#
#520000
0#
b10010 ,
#530000
b10011 )
1#
#540000
0#
b10011 ,
#550000
b10100 )
1#
#560000
0#
b10100 ,
#570000
b10101 )
1#
#580000
0#
b10101 ,
#590000
b10110 )
1#
#600000
0#
b10110 ,
#610000
b10111 )
1#
#620000
0#
b10111 ,
#630000
b11000 )
1#
#640000
0#
b11000 ,
#650000
b11001 )
1#
#660000
0#
b11001 ,
#670000
b11010 )
1#
#680000
0#
b11010 ,
#690000
b11011 )
1#
#700000
0#
b11011 ,
#710000
b11 +
b11100 )
1#
#720000
0#
b11100 ,
#730000
b100 +
1#
#740000
0#
#750000
b101 +
1#
#760000
0#
#770000
b110 +
1#
#780000
0#
b11 &
b11 '
#790000
b111 +
1#
#800000
0#
b0 -
#810000
b11 "
b11 (
1!
1*
1#
#820000
0#
b1 -
#830000
1#
#840000
0#
b10 -
#850000
1#
#860000
0#
b11 -
#870000
1#
#880000
0#
b100 -
#890000
1#
#900000
0#
b101 -
#910000
1#
#920000
0#
b110 -
#930000
1#
#940000
0#
b111 -
#950000
1#
#960000
0#
b1000 -
#970000
1#
#980000
0#
b1001 -
#990000
1#
#1000000
0#
b1010 -
#1010000
1#
#1020000
0#
b1011 -
#1030000
1#
#1040000
0#
b1100 -
#1050000
1#
#1060000
0#
b1101 -
#1070000
1#
#1080000
0#
b1110 -
#1090000
1#
#1100000
0#
b1111 -
#1110000
1#
#1120000
0#
b10000 -
#1130000
1#
#1140000
0#
b10001 -
#1150000
1#
#1160000
0#
b10010 -
#1170000
1#
#1180000
0#
b10011 -
#1190000
1#
#1200000
0#
b10100 -
#1210000
1#
#1220000
0#
b10101 -
#1230000
1#
#1240000
0#
b10110 -
#1250000
1#
#1260000
0#
b10111 -
#1270000
1#
#1280000
b1 "
b1 (
0#
b1 &
b1 '
b0 5
b11000 -
#1290000
1#
#1300000
0#
b1 5
#1310000
1#
#1320000
0#
b10 5
#1330000
1#
#1340000
0#
b11 5
#1350000
1#
#1360000
0#
b100 5
#1370000
1#
#1380000
0#
b101 5
#1390000
1#
#1400000
0#
b110 5
#1410000
1#
#1420000
0#
b111 5
#1430000
1#
#1440000
0#
b1000 5
#1450000
1#
#1460000
0#
b1001 5
#1470000
1#
#1480000
0#
b1010 5
#1490000
1#
#1500000
0#
b1011 5
#1510000
1#
#1520000
0#
b1100 5
#1530000
1#
#1540000
0#
b1101 5
#1550000
1#
#1560000
0#
b1110 5
#1570000
1#
#1580000
0#
b1111 5
#1590000
1#
#1600000
0#
b10000 5
#1610000
1#
#1620000
0#
b10001 5
#1630000
1#
#1640000
0#
b10010 5
#1650000
1#
#1660000
0#
b10011 5
#1670000
1#
#1680000
0#
b10100 5
#1690000
1#
#1700000
0#
b10101 5
#1710000
1#
#1720000
0#
b10110 5
#1730000
1#
#1740000
0#
b10111 5
#1750000
1#
#1760000
b0 "
b0 (
0#
b0 &
b0 '
b0 6
b11000 5
#1770000
1#
#1780000
0#
b1 6
#1790000
1#
#1800000
0#
b10 6
#1810000
1#
#1820000
0#
b11 6
#1830000
1#
#1840000
0#
b100 6
#1850000
1#
#1860000
0#
b101 6
#1870000
1#
#1880000
0#
b110 6
#1890000
1#
#1900000
0#
b111 6
#1910000
1#
#1920000
b10 "
b10 (
0#
b10 &
b10 '
b1000 6
#1930000
1#
#1940000
b0 "
b0 (
0#
b0 &
b0 '
#1950000
1#
#1960000
b1 "
b1 (
0#
b1 &
b1 '
#1970000
1#
#1980000
b0 "
b0 (
0#
b0 &
b0 '
#1990000
1#
#2000000
0#
#2010000
1#
#2020000
b1 "
b1 (
0#
b1 &
b1 '
#2030000
1#
#2040000
b11 "
b11 (
0#
b11 &
b11 '
#2050000
1#
#2060000
b0 "
b0 (
0#
b0 &
b0 '
#2070000
1#
#2080000
b11 "
b11 (
0#
b11 &
b11 '
#2090000
1#
#2100000
b0 "
b0 (
0#
b0 &
b0 '
#2110000
1#
#2120000
b1 "
b1 (
0#
b1 &
b1 '
#2130000
1#
#2140000
b11 "
b11 (
0#
b11 &
b11 '
#2150000
1#
#2160000
0#
#2170000
1#
#2180000
0#
#2190000
1#
#2200000
b10 "
b10 (
0#
b10 &
b10 '
#2210000
1#
#2220000
b0 "
b0 (
0#
b0 &
b0 '
#2230000
1#
#2240000
0#
#2250000
1#
#2260000
b11 "
b11 (
0#
b11 &
b11 '
#2270000
1#
#2280000
b1 "
b1 (
0#
b1 &
b1 '
#2290000
1#
#2300000
b10 "
b10 (
0#
b10 &
b10 '
#2310000
1#
#2320000
b0 "
b0 (
0#
b0 &
b0 '
#2330000
1#
#2340000
b1 "
b1 (
0#
b1 &
b1 '
#2350000
1#
#2360000
b10 "
b10 (
0#
b10 &
b10 '
#2370000
1#
#2380000
b1 "
b1 (
0#
b1 &
b1 '
#2390000
1#
#2400000
0!
b0 "
b0 (
0#
0$
b0 &
b0 '
#2410000
0*
b0 +
1#
#2420000
0#
#2430000
1#
#2440000
0#
#2450000
1#
#2460000
0#
#2470000
1#
#2480000
0#
1$
#2490000
1#
#2500000
0#
#2510000
1#
#2520000
0#
#2530000
1#
#2540000
0#
#2550000
1#
#2560000
0#
b1 &
b1 '
b0 7
#2570000
b1 )
b10 +
1#
#2580000
0#
b1 7
#2590000
b10 )
1#
#2600000
0#
b10 7
#2610000
b11 )
1#
#2620000
0#
b11 7
#2630000
b100 )
1#
#2640000
0#
b100 7
#2650000
b101 )
1#
#2660000
0#
b101 7
#2670000
b110 )
1#
#2680000
0#
b110 7
#2690000
b111 )
1#
#2700000
0#
b111 7
#2710000
b1000 )
1#
#2720000
0#
b1000 7
#2730000
b1001 )
1#
#2740000
0#
b1001 7
#2750000
b1010 )
1#
#2760000
0#
b1010 7
#2770000
b1011 )
1#
#2780000
0#
b1011 7
#2790000
b1100 )
1#
#2800000
0#
b1100 7
#2810000
b1101 )
1#
#2820000
0#
b1101 7
#2830000
b1110 )
1#
#2840000
0#
b1110 7
#2850000
b1111 )
1#
#2860000
0#
b1111 7
#2870000
b10000 )
1#
#2880000
0#
b10000 7
#2890000
b10001 )
1#
#2900000
0#
b10001 7
#2910000
b10010 )
1#
#2920000
0#
b10010 7
#2930000
b10011 )
1#
#2940000
0#
b10011 7
#2950000
b10100 )
1#
#2960000
0#
b10100 7
#2970000
b10101 )
1#
#2980000
0#
b10101 7
#2990000
b10110 )
1#
#3000000
0#
b10110 7
#3010000
b10111 )
1#
#3020000
0#
b0 &
b0 '
b10111 7
#3030000
b1 +
1#
#3040000
0#
b1 &
b1 '
b11000 7
#3050000
1#
#3060000
0#
b11001 7
#3070000
1#
#3080000
0#
b11010 7
#3090000
1#
#3100000
0#
b11011 7
#3110000
1#
#3120000
0#
b11100 7
#3130000
1#
#3140000
0#
#3150000
1#
#3160000
0#
#3170000
1#
#3180000
0#
b11 &
b11 '
#3190000
1#
#3200000
0#
b10 &
b10 '
b0 8
#3210000
1#
#3220000
0#
b1 8
#3230000
1#
#3240000
0#
b10 8
#3250000
1#
#3260000
0#
b11 8
#3270000
1#
#3280000
0#
b100 8
#3290000
1#
#3300000
0#
b101 8
#3310000
1#
#3320000
0#
b110 8
#3330000
1#
#3340000
0#
b111 8
#3350000
1#
#3360000
0#
b1000 8
#3370000
1#
#3380000
0#
b1001 8
#3390000
1#
#3400000
0#
b1010 8
#3410000
1#
#3420000
0#
b1011 8
#3430000
1#
#3440000
0#
b1100 8
#3450000
1#
#3460000
0#
b1101 8
#3470000
1#
#3480000
0#
b1110 8
#3490000
1#
#3500000
0#
b1111 8
#3510000
1#
#3520000
0#
b10000 8
#3530000
1#
#3540000
0#
b10001 8
#3550000
1#
#3560000
0#
b10010 8
#3570000
1#
#3580000
0#
b10011 8
#3590000
1#
#3600000
0#
b10100 8
#3610000
1#
#3620000
0#
b10101 8
#3630000
1#
#3640000
0#
b10110 8
#3650000
1#
#3660000
0#
b10111 8
#3670000
1#
#3680000
0#
b1 &
b1 '
b0 9
b11000 8
#3690000
1#
#3700000
0#
b1 9
#3710000
1#
#3720000
0#
b10 9
#3730000
1#
#3740000
0#
b11 9
#3750000
1#
#3760000
0#
b100 9
#3770000
1#
#3780000
0#
b101 9
#3790000
1#
#3800000
0#
b110 9
#3810000
1#
#3820000
0#
b111 9
#3830000
1#
#3840000
0#
b1000 9
#3850000
1#
#3860000
0#
b1001 9
#3870000
1#
#3880000
0#
b1010 9
#3890000
1#
#3900000
0#
b1011 9
#3910000
1#
#3920000
0#
b1100 9
#3930000
1#
#3940000
0#
b1101 9
#3950000
1#
#3960000
0#
b1110 9
#3970000
1#
#3980000
0#
b1111 9
#3990000
1#
#4000000
0#
b10000 9
#4010000
1#
#4020000
0#
b10001 9
#4030000
1#
#4040000
0#
b10010 9
#4050000
1#
#4060000
0#
b10011 9
#4070000
1#
#4080000
0#
b10100 9
#4090000
1#
#4100000
0#
b10101 9
#4110000
1#
#4120000
0#
b10110 9
#4130000
1#
#4140000
0#
b10111 9
#4150000
1#
#4160000
0#
b0 &
b0 '
b0 :
b11000 9
#4170000
1#
#4180000
0#
b1 :
#4190000
1#
#4200000
0#
b10 :
#4210000
1#
#4220000
0#
b11 :
#4230000
1#
#4240000
0#
b100 :
#4250000
1#
#4260000
0#
b101 :
#4270000
1#
#4280000
0#
b110 :
#4290000
1#
#4300000
0#
b111 :
#4310000
1#
#4320000
0#
b10 &
b10 '
b1000 :
#4330000
1#
#4340000
0#
b0 &
b0 '
#4350000
1#
#4360000
0#
b1 &
b1 '
#4370000
1#
#4380000
0#
b0 &
b0 '
#4390000
1#
#4400000
0#
#4410000
1#
#4420000
0#
b1 &
b1 '
#4430000
1#
#4440000
0#
b11 &
b11 '
#4450000
1#
#4460000
0#
b0 &
b0 '
#4470000
1#
#4480000
0#
b11 &
b11 '
#4490000
1#
#4500000
0#
b0 &
b0 '
#4510000
1#
#4520000
0#
b1 &
b1 '
#4530000
1#
#4540000
0#
b11 &
b11 '
#4550000
1#
#4560000
0#
#4570000
1#
#4580000
0#
#4590000
1#
#4600000
0#
b10 &
b10 '
#4610000
1#
#4620000
0#
b0 &
b0 '
#4630000
1#
#4640000
0#
#4650000
1#
#4660000
0#
b11 &
b11 '
#4670000
1#
#4680000
0#
b1 &
b1 '
#4690000
1#
#4700000
0#
b10 &
b10 '
#4710000
1#
#4720000
0#
b0 &
b0 '
#4730000
1#
#4740000
0#
b1 &
b1 '
#4750000
1#
#4760000
0#
b10 &
b10 '
#4770000
1#
#4780000
0#
b1 &
b1 '
#4790000
1#
#4800000
0#
0$
b0 &
b0 '
#4810000
b0 )
b0 +
1#
#4820000
0#
#4830000
1#
#4840000
0#
#4850000
1#
#4860000
0#
#4870000
1#
#4880000
0#
1$
#4890000
1#
#4900000
0#
#4910000
1#
#4920000
0#
#4930000
1#
#4940000
0#
#4950000
1#
#4960000
0#
b1 &
b1 '
b0 ;
#4970000
b1 )
b10 +
1#
#4980000
0#
b1 ;
#4990000
b10 )
1#
#5000000
0#
b10 ;
#5010000
b11 )
1#
#5020000
0#
b11 ;
#5030000
b100 )
1#
#5040000
0#
b100 ;
#5050000
b101 )
1#
#5060000
0#
b101 ;
#5070000
b110 )
1#
#5080000
0#
b110 ;
#5090000
b111 )
1#
#5100000
0#
b111 ;
#5110000
b1000 )
1#
#5120000
0#
b1000 ;
#5130000
b1001 )
1#
#5140000
0#
b1001 ;
#5150000
b1010 )
1#
#5160000
0#
b1010 ;
#5170000
b1011 )
1#
#5180000
0#
b1011 ;
#5190000
b1100 )
1#
#5200000
0#
b1100 ;
#5210000
b1101 )
1#
#5220000
0#
b1101 ;
#5230000
b1110 )
1#
#5240000
0#
b1110 ;
#5250000
b1111 )
1#
#5260000
0#
b1111 ;
#5270000
b10000 )
1#
#5280000
0#
b10000 ;
#5290000
b10001 )
1#
#5300000
0#
b10001 ;
#5310000
b10010 )
1#
#5320000
0#
b10010 ;
#5330000
b10011 )
1#
#5340000
0#
b10011 ;
#5350000
b10100 )
1#
#5360000
0#
b10100 ;
#5370000
b10101 )
1#
#5380000
0#
b10101 ;
#5390000
b10110 )
1#
#5400000
0#
b10110 ;
#5410000
b10111 )
1#
#5420000
0#
b10111 ;
#5430000
b11000 )
1#
#5440000
0#
b11000 ;
#5450000
b11001 )
1#
#5460000
0#
b11001 ;
#5470000
b11010 )
1#
#5480000
0#
b11010 ;
#5490000
b11011 )
1#
#5500000
0#
b11011 ;
#5510000
b11 +
b11100 )
1#
#5520000
0#
b11100 ;
#5530000
b100 +
1#
#5540000
0#
#5550000
b101 +
1#
#5560000
0#
#5570000
b110 +
1#
#5580000
0#
#5590000
b1 +
1#
#5600000
0#
b10 &
b10 '
b0 <
#5610000
1#
#5620000
0#
b1 <
#5630000
1#
#5640000
0#
b10 <
#5650000
1#
#5660000
0#
b11 <
#5670000
1#
#5680000
0#
b100 <
#5690000
1#
#5700000
0#
b101 <
#5710000
1#
#5720000
0#
b110 <
#5730000
1#
#5740000
0#
b111 <
#5750000
1#
#5760000
0#
b1000 <
#5770000
1#
#5780000
0#
b1001 <
#5790000
1#
#5800000
0#
b1010 <
#5810000
1#
#5820000
0#
b1011 <
#5830000
1#
#5840000
0#
b1100 <
#5850000
1#
#5860000
0#
b1101 <
#5870000
1#
#5880000
0#
b1110 <
#5890000
1#
#5900000
0#
b1111 <
#5910000
1#
#5920000
0#
b10000 <
#5930000
1#
#5940000
0#
b10001 <
#5950000
1#
#5960000
0#
b10010 <
#5970000
1#
#5980000
0#
b10011 <
#5990000
1#
#6000000
0#
b10100 <
#6010000
1#
#6020000
0#
b10101 <
#6030000
1#
#6040000
0#
b10110 <
#6050000
1#
#6060000
0#
b10111 <
#6070000
1#
#6080000
0#
b1 &
b1 '
b0 .
b11000 <
#6090000
1#
#6100000
0#
b1 .
#6110000
1#
#6120000
0#
b10 .
#6130000
1#
#6140000
0#
b11 .
#6150000
1#
#6160000
0#
b100 .
#6170000
1#
#6180000
0#
b101 .
#6190000
1#
#6200000
0#
b110 .
#6210000
1#
#6220000
0#
b111 .
#6230000
1#
#6240000
0#
b1000 .
#6250000
1#
#6260000
0#
b1001 .
#6270000
1#
#6280000
0#
b1010 .
#6290000
1#
#6300000
0#
b1011 .
#6310000
1#
#6320000
0#
b1100 .
#6330000
1#
#6340000
0#
b1101 .
#6350000
1#
#6360000
0#
b1110 .
#6370000
1#
#6380000
0#
b1111 .
#6390000
1#
#6400000
0#
b10000 .
#6410000
1#
#6420000
0#
b10001 .
#6430000
1#
#6440000
0#
b10010 .
#6450000
1#
#6460000
0#
b10011 .
#6470000
1#
#6480000
0#
b10100 .
#6490000
1#
#6500000
0#
b10101 .
#6510000
1#
#6520000
0#
b10110 .
#6530000
1#
#6540000
0#
b10111 .
#6550000
1#
#6560000
0#
b0 &
b0 '
b0 /
b11000 .
#6570000
1#
#6580000
0#
b1 /
#6590000
1#
#6600000
0#
b10 /
#6610000
1#
#6620000
0#
b11 /
#6630000
1#
#6640000
0#
b100 /
#6650000
1#
#6660000
0#
b101 /
#6670000
1#
#6680000
0#
b110 /
#6690000
1#
#6700000
0#
b111 /
#6710000
1#
#6720000
0#
b10 &
b10 '
b1000 /
#6730000
1#
#6740000
0#
b0 &
b0 '
#6750000
1#
#6760000
0#
b1 &
b1 '
#6770000
1#
#6780000
0#
b0 &
b0 '
#6790000
1#
#6800000
0#
#6810000
1#
#6820000
0#
b1 &
b1 '
#6830000
1#
#6840000
0#
b11 &
b11 '
#6850000
1#
#6860000
0#
b0 &
b0 '
#6870000
1#
#6880000
0#
b11 &
b11 '
#6890000
1#
#6900000
0#
b0 &
b0 '
#6910000
1#
#6920000
0#
b1 &
b1 '
#6930000
1#
#6940000
0#
b11 &
b11 '
#6950000
1#
#6960000
0#
#6970000
1#
#6980000
0#
#6990000
1#
#7000000
0#
b10 &
b10 '
#7010000
1#
#7020000
0#
b0 &
b0 '
#7030000
1#
#7040000
0#
#7050000
1#
#7060000
0#
b11 &
b11 '
#7070000
1#
#7080000
0#
b1 &
b1 '
#7090000
1#
#7100000
0#
b10 &
b10 '
#7110000
1#
#7120000
0#
b0 &
b0 '
#7130000
1#
#7140000
0#
b1 &
b1 '
#7150000
1#
#7160000
0#
b10 &
b10 '
#7170000
1#
#7180000
0#
b1 &
b1 '
#7190000
1#
#7200000
0#
0$
b0 &
b0 '
#7210000
b0 )
b0 +
1#
#7220000
0#
#7230000
1#
#7240000
0#
#7250000
1#
#7260000
0#
#7270000
1#
#7280000
0#
1$
#7290000
1#
#7300000
0#
#7310000
1#
#7320000
0#
#7330000
1#
#7340000
0#
#7350000
1#
#7360000
0#
b1 &
b1 '
b0 0
#7370000
b1 )
b10 +
1#
#7380000
0#
b1 0
#7390000
b10 )
1#
#7400000
0#
b10 0
#7410000
b11 )
1#
#7420000
0#
b11 0
#7430000
b100 )
1#
#7440000
0#
b100 0
#7450000
b101 )
1#
#7460000
0#
b101 0
#7470000
b110 )
1#
#7480000
0#
b110 0
#7490000
b111 )
1#
#7500000
0#
b111 0
#7510000
b1000 )
1#
#7520000
0#
b1000 0
#7530000
b1001 )
1#
#7540000
0#
b1001 0
#7550000
b1010 )
1#
#7560000
0#
b1010 0
#7570000
b1011 )
1#
#7580000
0#
b1011 0
#7590000
b1100 )
1#
#7600000
0#
b1100 0
#7610000
b1101 )
1#
#7620000
0#
b1101 0
#7630000
b1110 )
1#
#7640000
0#
b1110 0
#7650000
b1111 )
1#
#7660000
0#
b1111 0
#7670000
b10000 )
1#
#7680000
0#
b10000 0
#7690000
b10001 )
1#
#7700000
0#
b10001 0
#7710000
b10010 )
1#
#7720000
0#
b10010 0
#7730000
b10011 )
1#
#7740000
0#
b10011 0
#7750000
b10100 )
1#
#7760000
0#
b10100 0
#7770000
b10101 )
1#
#7780000
0#
b10101 0
#7790000
b10110 )
1#
#7800000
0#
b10110 0
#7810000
b10111 )
1#
#7820000
0#
b10111 0
#7830000
b11000 )
1#
#7840000
0#
b11000 0
#7850000
b11001 )
1#
#7860000
0#
b11001 0
#7870000
b11010 )
1#
#7880000
0#
b11010 0
#7890000
b11011 )
1#
#7900000
0#
b11011 0
#7910000
b11 +
b11100 )
1#
#7920000
0#
b11100 0
#7930000
b100 +
1#
#7940000
0#
#7950000
b101 +
1#
#7960000
0#
#7970000
b110 +
1#
#7980000
0#
b11 &
b11 '
#7990000
b111 +
1#
#8000000
0#
b0 1
#8010000
b11 "
b11 (
1!
1*
1#
#8020000
0#
b1 1
#8030000
1#
#8040000
0#
b10 1
#8050000
1#
#8060000
0#
b11 1
#8070000
1#
#8080000
0#
b100 1
#8090000
1#
#8100000
0#
b101 1
#8110000
1#
#8120000
0#
b110 1
#8130000
1#
#8140000
0#
b111 1
#8150000
1#
#8160000
0#
b1000 1
#8170000
1#
#8180000
0#
b1001 1
#8190000
1#
#8200000
0#
b1010 1
#8210000
1#
#8220000
0#
b1011 1
#8230000
1#
#8240000
0#
b1100 1
#8250000
1#
#8260000
0#
b1101 1
#8270000
1#
#8280000
0#
b1110 1
#8290000
1#
#8300000
0#
b1111 1
#8310000
1#
#8320000
0#
b10000 1
#8330000
1#
#8340000
0#
b10001 1
#8350000
1#
#8360000
0#
b10010 1
#8370000
1#
#8380000
0#
b10011 1
#8390000
1#
#8400000
0#
b10100 1
#8410000
1#
#8420000
0#
b10101 1
#8430000
1#
#8440000
0#
b10110 1
#8450000
1#
#8460000
0#
b10111 1
#8470000
1#
#8480000
b1 "
b1 (
0#
b1 &
b1 '
b0 2
b11000 1
#8490000
1#
#8500000
0#
b1 2
#8510000
1#
#8520000
0#
b10 2
#8530000
1#
#8540000
0#
b11 2
#8550000
1#
#8560000
0#
b100 2
#8570000
1#
#8580000
0#
b101 2
#8590000
1#
#8600000
0#
b110 2
#8610000
1#
#8620000
0#
b111 2
#8630000
1#
#8640000
0#
b1000 2
#8650000
1#
#8660000
0#
b1001 2
#8670000
1#
#8680000
0#
b1010 2
#8690000
1#
#8700000
0#
b1011 2
#8710000
1#
#8720000
0#
b1100 2
#8730000
1#
#8740000
0#
b1101 2
#8750000
1#
#8760000
0#
b1110 2
#8770000
1#
#8780000
0#
b1111 2
#8790000
1#
#8800000
0#
b10000 2
#8810000
1#
#8820000
0#
b10001 2
#8830000
1#
#8840000
0#
b10010 2
#8850000
1#
#8860000
0#
b10011 2
#8870000
1#
#8880000
0#
b10100 2
#8890000
1#
#8900000
0#
b10101 2
#8910000
1#
#8920000
0#
b10110 2
#8930000
1#
#8940000
0#
b10111 2
#8950000
1#
#8960000
b0 "
b0 (
0#
b0 &
b0 '
b0 3
b11000 2
#8970000
1#
#8980000
0#
b1 3
#8990000
1#
#9000000
0#
b10 3
#9010000
1#
#9020000
0#
b11 3
#9030000
1#
#9040000
0#
b100 3
#9050000
1#
#9060000
0#
b101 3
#9070000
1#
#9080000
0#
b110 3
#9090000
1#
#9100000
0#
b111 3
#9110000
1#
#9120000
0#
b0 4
b1000 3
#9130000
1#
#9140000
b1 "
b1 (
0#
b1 &
b1 '
#9150000
1#
#9160000
b10 "
b10 (
0#
b10 &
b10 '
#9170000
1#
#9180000
b11 "
b11 (
0#
b11 &
b11 '
#9190000
1#
#9200000
b0 "
b0 (
0#
b0 &
b0 '
b1 4
#9210000
1#
#9220000
b1 "
b1 (
0#
b1 &
b1 '
#9230000
1#
#9240000
b10 "
b10 (
0#
b10 &
b10 '
#9250000
1#
#9260000
b11 "
b11 (
0#
b11 &
b11 '
#9270000
1#
#9280000
b0 "
b0 (
0#
b0 &
b0 '
b10 4
#9290000
1#
#9300000
b1 "
b1 (
0#
b1 &
b1 '
#9310000
1#
#9320000
b10 "
b10 (
0#
b10 &
b10 '
#9330000
1#
#9340000
b11 "
b11 (
0#
b11 &
b11 '
#9350000
1#
#9360000
b0 "
b0 (
0#
b0 &
b0 '
b11 4
#9370000
1#
#9380000
b1 "
b1 (
0#
b1 &
b1 '
#9390000
1#
#9400000
b10 "
b10 (
0#
b10 &
b10 '
#9410000
1#
#9420000
b11 "
b11 (
0#
b11 &
b11 '
#9430000
1#
#9440000
b0 "
b0 (
0#
b0 &
b0 '
b100 4
#9450000
1#
#9460000
b1 "
b1 (
0#
b1 &
b1 '
#9470000
1#
#9480000
b10 "
b10 (
0#
b10 &
b10 '
#9490000
1#
#9500000
b11 "
b11 (
0#
b11 &
b11 '
#9510000
1#
#9520000
b0 "
b0 (
0#
b0 &
b0 '
b101 4
#9530000
1#
#9540000
b1 "
b1 (
0#
b1 &
b1 '
#9550000
1#
#9560000
b10 "
b10 (
0#
b10 &
b10 '
#9570000
1#
#9580000
b11 "
b11 (
0#
b11 &
b11 '
#9590000
1#
#9600000
b0 "
b0 (
0#
b0 &
b0 '
b110 4
#9610000
1#
#9620000
b1 "
b1 (
0#
b1 &
b1 '
#9630000
1#
#9640000
b10 "
b10 (
0#
b10 &
b10 '
#9650000
1#
#9660000
b11 "
b11 (
0#
b11 &
b11 '
#9670000
1#
#9680000
b0 "
b0 (
0#
b0 &
b0 '
b111 4
#9690000
1#
#9700000
b1 "
b1 (
0#
b1 &
b1 '
#9710000
1#
#9720000
b10 "
b10 (
0#
b10 &
b10 '
#9730000
1#
#9740000
b11 "
b11 (
0#
b11 &
b11 '
#9750000
1#
#9760000
b0 "
b0 (
0#
b0 &
b0 '
b1000 4
#9770000
1#
#9780000
b1 "
b1 (
0#
b1 &
b1 '
#9790000
1#
#9800000
b10 "
b10 (
0#
b10 &
b10 '
#9810000
1#
#9820000
b11 "
b11 (
0#
b11 &
b11 '
#9830000
1#
#9840000
b0 "
b0 (
0#
b0 &
b0 '
b1001 4
#9850000
1#
#9860000
b1 "
b1 (
0#
b1 &
b1 '
#9870000
1#
#9880000
b10 "
b10 (
0#
b10 &
b10 '
#9890000
1#
#9900000
b11 "
b11 (
0#
b11 &
b11 '
#9910000
1#
#9920000
b0 "
b0 (
0#
b0 &
b0 '
b1010 4
#9930000
1#
#9940000
b1 "
b1 (
0#
b1 &
b1 '
#9950000
1#
#9960000
b10 "
b10 (
0#
b10 &
b10 '
#9970000
1#
#9980000
b11 "
b11 (
0#
b11 &
b11 '
#9990000
1#
#10000000
b0 "
b0 (
0#
b0 &
b0 '
b1011 4
#10010000
1#
#10020000
b1 "
b1 (
0#
b1 &
b1 '
#10030000
1#
#10040000
b10 "
b10 (
0#
b10 &
b10 '
#10050000
1#
#10060000
b11 "
b11 (
0#
b11 &
b11 '
#10070000
1#
#10080000
b0 "
b0 (
0#
b0 &
b0 '
b1100 4
#10090000
1#
#10100000
b1 "
b1 (
0#
b1 &
b1 '
#10110000
1#
#10120000
b10 "
b10 (
0#
b10 &
b10 '
#10130000
1#
#10140000
b11 "
b11 (
0#
b11 &
b11 '
#10150000
1#
#10160000
b0 "
b0 (
0#
b0 &
b0 '
b1101 4
#10170000
1#
#10180000
b1 "
b1 (
0#
b1 &
b1 '
#10190000
1#
#10200000
b10 "
b10 (
0#
b10 &
b10 '
#10210000
1#
#10220000
b11 "
b11 (
0#
b11 &
b11 '
#10230000
1#
#10240000
b0 "
b0 (
0#
b0 &
b0 '
b1110 4
#10250000
1#
#10260000
b1 "
b1 (
0#
b1 &
b1 '
#10270000
1#
#10280000
b10 "
b10 (
0#
b10 &
b10 '
#10290000
1#
#10300000
b11 "
b11 (
0#
b11 &
b11 '
#10310000
1#
#10320000
b0 "
b0 (
0#
b0 &
b0 '
b1111 4
#10330000
1#
#10340000
b1 "
b1 (
0#
b1 &
b1 '
#10350000
1#
#10360000
b10 "
b10 (
0#
b10 &
b10 '
#10370000
1#
#10380000
b11 "
b11 (
0#
b11 &
b11 '
#10390000
1#
#10400000
b0 "
b0 (
0#
b0 &
b0 '
b10000 4
#10410000
1#
#10420000
b1 "
b1 (
0#
b1 &
b1 '
#10430000
1#
#10440000
b10 "
b10 (
0#
b10 &
b10 '
#10450000
1#
#10460000
b11 "
b11 (
0#
b11 &
b11 '
#10470000
1#
#10480000
b0 "
b0 (
0#
b0 &
b0 '
b10001 4
#10490000
1#
#10500000
b1 "
b1 (
0#
b1 &
b1 '
#10510000
1#
#10520000
b10 "
b10 (
0#
b10 &
b10 '
#10530000
1#
