integration.vcd
$date
	Thu Oct 27 17:48:25 2022
$end
$version
	Icarus Verilog
$end
$timescale
	1ps
$end
$scope module integration_tb $end
$var wire 1 ! clk_50mhz $end
$var wire 1 " fw_axiov $end
$var wire 2 # fw_axiod [1:0] $end
$var wire 1 $ ether_axiov $end
$var wire 2 % ether_axiod [1:0] $end
$var wire 1 & bo_axiov $end
$var wire 2 ' bo_axiod [1:0] $end
$var wire 1 ( agg_axiov $end
$var wire 32 ) agg_axiod [31:0] $end
$var reg 2 * axiid [1:0] $end
$var reg 1 + axiiv $end
$var reg 1 , clk $end
$var reg 1 - rst $end
$scope module agg $end
$var wire 1 ( axiov $end
$var wire 1 ! clk $end
$var wire 1 - rst $end
$var wire 32 . axiod [31:0] $end
$var wire 1 " axiiv $end
$var wire 2 / axiid [1:0] $end
$var reg 4 0 count [3:0] $end
$var reg 64 1 data_buffer [63:0] $end
$var integer 32 2 prev_state [31:0] $end
$var integer 32 3 state [31:0] $end
$upscope $end
$scope module bo $end
$var wire 1 & axiov $end
$var wire 1 ! clk $end
$var wire 1 - rst $end
$var wire 2 4 axiod [1:0] $end
$var wire 1 $ axiiv $end
$var wire 2 5 axiid [1:0] $end
$var reg 8 6 buffer0 [7:0] $end
$var reg 8 7 buffer1 [7:0] $end
$var reg 2 8 ind [1:0] $end
$var integer 32 9 state [31:0] $end
$upscope $end
$scope module ethernet $end
$var wire 1 $ axiov $end
$var wire 1 ! clk $end
$var wire 1 + crsdv $end
$var wire 1 - rst $end
$var wire 2 : rxd [1:0] $end
$var wire 2 ; axiod [1:0] $end
$var reg 5 < preamble_count [4:0] $end
$var reg 1 = received $end
$var integer 32 > state [31:0] $end
$upscope $end
$scope module fw $end
$var wire 2 ? axiid [1:0] $end
$var wire 1 & axiiv $end
$var wire 2 @ axiod [1:0] $end
$var wire 1 " axiov $end
$var wire 1 ! clk $end
$var wire 1 - rst $end
$var reg 5 A count [4:0] $end
$var reg 48 B mac_buffer [47:0] $end
$var integer 32 C state [31:0] $end
$upscope $end
$scope begin $ivl_for_loop0 $end
$var integer 32 D i [31:0] $end
$upscope $end
$scope begin $ivl_for_loop1 $end
$var integer 32 E i [31:0] $end
$upscope $end
$scope begin $ivl_for_loop2 $end
$var integer 32 F i [31:0] $end
$upscope $end
$scope begin $ivl_for_loop3 $end
$var integer 32 G i [31:0] $end
$upscope $end
$scope begin $ivl_for_loop4 $end
$var integer 32 H i [31:0] $end
$upscope $end
$scope begin $ivl_for_loop5 $end
$var integer 32 I i [31:0] $end
$upscope $end
$scope begin $ivl_for_loop6 $end
$var integer 32 J i [31:0] $end
$upscope $end
$scope begin $ivl_for_loop7 $end
$var integer 32 K i [31:0] $end
$upscope $end
$scope begin $ivl_for_loop8 $end
$var integer 32 L i [31:0] $end
$upscope $end
$upscope $end
$enddefinitions $end
#0
$dumpvars
bx L
bx K
bx J
bx I
bx H
bx G
bx F
bx E
bx D
b0 C
bx B
bx A
bx @
bx ?
b0 >
x=
bx <
b0 ;
b0 :
b0 9
bx 8
bx 7
bx 6
b0 5
bx 4
b0 3
b0 2
bx 1
bx 0
bx /
bx .
0-
0,
0+
b0 *
bx )
0(
bx '
0&
b0 %
0$
bx #
0"
0!
$end
#10000
1!
1,
#20000
0!
0,
#30000
1!
1,
#40000
0!
0,
1-
#50000
b0 #
b0 /
b0 @
b0 '
b0 4
b0 ?
b0 )
b0 .
0=
b0 <
b0 8
b0 7
b0 6
b0 A
b11010010110100101011010000001100101010010010001 B
b0 1
1!
1,
#60000
0!
0,
0-
#70000
1!
1,
#80000
0!
0,
#90000
1!
1,
#100000
0!
0,
b1 *
b1 :
1+
b0 D
#110000
b1 <
b10 >
1!
1,
#120000
0!
0,
b1 D
#130000
b10 <
1!
1,
#140000
0!
0,
b10 D
#150000
b11 <
1!
1,
#160000
0!
0,
b11 D
#170000
b100 <
1!
1,
#180000
0!
0,
b100 D
#190000
b101 <
1!
1,
#200000
0!
0,
b101 D
#210000
b110 <
1!
1,
#220000
0!
0,
b110 D
#230000
b111 <
1!
1,
#240000
0!
0,
b111 D
#250000
b1000 <
1!
1,
#260000
0!
0,
b1000 D
#270000
b1001 <
1!
1,
#280000
0!
0,
b1001 D
#290000
b1010 <
1!
1,
#300000
0!
0,
b1010 D
#310000
b1011 <
1!
1,
#320000
0!
0,
b1011 D
#330000
b1100 <
1!
1,
#340000
0!
0,
b1100 D
#350000
b1101 <
1!
1,
#360000
0!
0,
b1101 D
#370000
b1110 <
1!
1,
#380000
0!
0,
b1110 D
#390000
b1111 <
1!
1,
#400000
0!
0,
b1111 D
#410000
b10000 <
1!
1,
#420000
0!
0,
b10000 D
#430000
b10001 <
1!
1,
#440000
0!
0,
b10001 D
#450000
b10010 <
1!
1,
#460000
0!
0,
b10010 D
#470000
b10011 <
1!
1,
#480000
0!
0,
b10011 D
#490000
b10100 <
1!
1,
#500000
0!
0,
b10100 D
#510000
b10101 <
1!
1,
#520000
0!
0,
b10101 D
#530000
b10110 <
1!
1,
#540000
0!
0,
b10110 D
#550000
b10111 <
1!
1,
#560000
0!
0,
b10111 D
#570000
b11000 <
1!
1,
#580000
0!
0,
b11000 D
#590000
b11001 <
1!
1,
#600000
0!
0,
b11001 D
#610000
b11010 <
1!
1,
#620000
0!
0,
b11010 D
#630000
b11011 <
1!
1,
#640000
0!
0,
b11011 D
#650000
b11 >
b11100 <
1!
1,
#660000
0!
0,
b11100 D
#670000
b100 >
1!
1,
#680000
0!
0,
#690000
b101 >
1!
1,
#700000
0!
0,
#710000
b110 >
1!
1,
#720000
0!
0,
b11 *
b11 :
#730000
b11 %
b11 5
b11 ;
1$
b111 >
1!
1,
#740000
0!
0,
b0 E
#750000
b11 #
b11 /
b11 @
b11 '
b11 4
b11 ?
b11000000 6
b1 8
b1 9
1=
1!
1,
#760000
0!
0,
b1 E
#770000
b10 8
b11110000 6
1!
1,
#780000
0!
0,
b10 E
#790000
b11 8
b11111100 6
1!
1,
#800000
0!
0,
b11 E
#810000
1&
b0 8
b11 9
b11111111 6
1!
1,
#820000
0!
0,
b100 E
#830000
b1 A
b10 C
b1 8
b11000000 7
b11111100 6
1!
1,
#840000
0!
0,
b101 E
#850000
b10 8
b11110000 7
b11110000 6
b10 A
1!
1,
#860000
0!
0,
b110 E
#870000
b11 A
b11 8
b11111100 7
b11000000 6
1!
1,
#880000
0!
0,
b111 E
#890000
b0 8
b10 9
b11111111 7
b0 6
b100 A
1!
1,
#900000
0!
0,
b1000 E
#910000
b101 A
b1 8
b11000000 6
b11111100 7
1!
1,
#920000
0!
0,
b1001 E
#930000
b10 8
b11110000 6
b11110000 7
b110 A
1!
1,
#940000
0!
0,
b1010 E
#950000
b111 A
b11 8
b11111100 6
b11000000 7
1!
1,
#960000
0!
0,
b1011 E
#970000
b0 8
b11 9
b11111111 6
b0 7
b1000 A
1!
1,
#980000
0!
0,
b1100 E
#990000
b1001 A
b1 8
b11000000 7
b11111100 6
1!
1,
#1000000
0!
0,
b1101 E
#1010000
b10 8
b11110000 7
b11110000 6
b1010 A
1!
1,
#1020000
0!
0,
b1110 E
#1030000
b1011 A
b11 8
b11111100 7
b11000000 6
1!
1,
#1040000
0!
0,
b1111 E
#1050000
b0 8
b10 9
b11111111 7
b0 6
b1100 A
1!
1,
#1060000
0!
0,
b10000 E
#1070000
b1101 A
b1 8
b11000000 6
b11111100 7
1!
1,
#1080000
0!
0,
b10001 E
#1090000
b10 8
b11110000 6
b11110000 7
b1110 A
1!
1,
#1100000
0!
0,
b10010 E
#1110000
b1111 A
b11 8
b11111100 6
b11000000 7
1!
1,
#1120000
0!
0,
b10011 E
#1130000
b0 8
b11 9
b11111111 6
b0 7
b10000 A
1!
1,
#1140000
0!
0,
b10100 E
#1150000
b10001 A
b1 8
b11000000 7
b11111100 6
1!
1,
#1160000
0!
0,
b10101 E
#1170000
b10 8
b11110000 7
b11110000 6
b10010 A
1!
1,
#1180000
0!
0,
b10110 E
#1190000
b10011 A
b11 8
b11111100 7
b11000000 6
1!
1,
#1200000
0!
0,
b10111 E
#1210000
b0 8
b10 9
b11111111 7
b0 6
b10100 A
1!
1,
#1220000
b1 %
b1 5
b1 ;
0!
0,
b1 *
b1 :
b0 F
b11000 E
#1230000
b10101 A
b1 8
b1000000 6
b11111100 7
1!
1,
#1240000
0!
0,
b1 F
#1250000
b10 8
b1010000 6
b11110000 7
b10110 A
1!
1,
#1260000
0!
0,
b10 F
#1270000
b10111 A
b11 8
b1010100 6
b11000000 7
1!
1,
#1280000
0!
0,
b11 F
#1290000
b1 #
b1 /
b1 @
b1 '
b1 4
b1 ?
b0 8
b11 9
b1010101 6
b0 7
b11 C
b0 A
1!
1,
#1300000
0!
0,
b100 F
#1310000
b1 A
b1 8
b1000000 7
b1010100 6
1!
1,
#1320000
0!
0,
b101 F
#1330000
b10 8
b1010000 7
b1010000 6
b10 A
1!
1,
#1340000
0!
0,
b110 F
#1350000
b11 A
b11 8
b1010100 7
b1000000 6
1!
1,
#1360000
0!
0,
b111 F
#1370000
b0 8
b10 9
b1010101 7
b0 6
b100 A
1!
1,
#1380000
0!
0,
b1000 F
#1390000
b101 A
b1 8
b1000000 6
b1010100 7
1!
1,
#1400000
0!
0,
b1001 F
#1410000
b10 8
b1010000 6
b1010000 7
b110 A
1!
1,
#1420000
0!
0,
b1010 F
#1430000
b111 A
b11 8
b1010100 6
b1000000 7
1!
1,
#1440000
0!
0,
b1011 F
#1450000
b0 8
b11 9
b1010101 6
b0 7
b1000 A
1!
1,
#1460000
0!
0,
b1100 F
#1470000
b1001 A
b1 8
b1000000 7
b1010100 6
1!
1,
#1480000
0!
0,
b1101 F
#1490000
b10 8
b1010000 7
b1010000 6
b1010 A
1!
1,
#1500000
0!
0,
b1110 F
#1510000
b1011 A
b11 8
b1010100 7
b1000000 6
1!
1,
#1520000
0!
0,
b1111 F
#1530000
b0 8
b10 9
b1010101 7
b0 6
b1100 A
1!
1,
#1540000
0!
0,
b10000 F
#1550000
b1101 A
b1 8
b1000000 6
b1010100 7
1!
1,
#1560000
0!
0,
b10001 F
#1570000
b10 8
b1010000 6
b1010000 7
b1110 A
1!
1,
#1580000
0!
0,
b10010 F
#1590000
b1111 A
b11 8
b1010100 6
b1000000 7
1!
1,
#1600000
0!
0,
b10011 F
#1610000
b0 8
b11 9
b1010101 6
b0 7
b10000 A
1!
1,
#1620000
0!
0,
b10100 F
#1630000
b10001 A
b1 8
b1000000 7
b1010100 6
1!
1,
#1640000
0!
0,
b10101 F
#1650000
b10 8
b1010000 7
b1010000 6
b10010 A
1!
1,
#1660000
0!
0,
b10110 F
#1670000
b10011 A
b11 8
b1010100 7
b1000000 6
1!
1,
#1680000
0!
0,
b10111 F
#1690000
b0 8
b10 9
b1010101 7
b0 6
b10100 A
1!
1,
#1700000
b0 %
b0 5
b0 ;
0!
0,
b0 *
b0 :
b0 G
b11000 F
#1710000
b10101 A
b1 8
b1010100 7
1!
1,
#1720000
0!
0,
b1 G
#1730000
b10 8
b1010000 7
b10110 A
1!
1,
#1740000
0!
0,
b10 G
#1750000
b10111 A
b11 8
b1000000 7
1!
1,
#1760000
0!
0,
b11 G
#1770000
b0 #
b0 /
b0 @
b0 '
b0 4
b0 ?
b0 8
b11 9
b0 7
b11000 A
1!
1,
#1780000
0!
0,
b100 G
#1790000
b11001 A
b1 8
1!
1,
#1800000
0!
0,
b101 G
#1810000
b10 8
b11010 A
1!
1,
#1820000
0!
0,
b110 G
#1830000
b11011 A
b11 8
1!
1,
#1840000
0!
0,
b111 G
#1850000
b0 8
b10 9
b11100 A
1!
1,
#1860000
b1 %
b1 5
b1 ;
0!
0,
b1 *
b1 :
b1000 G
#1870000
b11101 A
b1 8
b1000000 6
1!
1,
#1880000
b0 %
b0 5
b0 ;
0!
0,
b0 *
b0 :
#1890000
b10 8
b10000 6
b11110 A
1!
1,
#1900000
0!
0,
#1910000
b11111 A
b11 8
b100 6
1!
1,
#1920000
b11 %
b11 5
b11 ;
0!
0,
b11 *
b11 :
#1930000
b11 #
b11 /
b11 @
b11 '
b11 4
b11 ?
1"
b0 8
b11 9
b11000001 6
b100 C
b0 A
1!
1,
#1940000
b1 %
b1 5
b1 ;
0!
0,
b1 *
b1 :
#1950000
b0 #
b0 /
b0 @
b0 '
b0 4
b0 ?
b1 3
b1 0
b11 1
b1 8
b1000000 7
b100 6
1!
1,
#1960000
0!
0,
#1970000
b10 8
b1010000 7
b10000 6
b10 0
b1100 1
b1 2
1!
1,
#1980000
b0 %
b0 5
b0 ;
0!
0,
b0 *
b0 :
#1990000
b1 #
b1 /
b1 @
b1 '
b1 4
b1 ?
b11 0
b110000 1
b11 8
b10100 7
b1000000 6
1!
1,
#2000000
b11 %
b11 5
b11 ;
0!
0,
b11 *
b11 :
#2010000
b11 #
b11 /
b11 @
b11 '
b11 4
b11 ?
b0 8
b10 9
b11000101 7
b0 6
b100 0
b11000001 1
1!
1,
#2020000
0!
0,
#2030000
b0 #
b0 /
b0 @
b0 '
b0 4
b0 ?
b101 0
b1100000111 1
b1 8
b11000000 6
b10100 7
1!
1,
#2040000
0!
0,
#2050000
b1 #
b1 /
b1 @
b1 '
b1 4
b1 ?
b10 8
b11110000 6
b1010000 7
b110 0
b110000011100 1
1!
1,
#2060000
b10 %
b10 5
b10 ;
0!
0,
b10 *
b10 :
#2070000
b111 0
b11000001110001 1
b11 8
b10111100 6
b1000000 7
1!
1,
#2080000
b1 %
b1 5
b1 ;
0!
0,
b1 *
b1 :
#2090000
b0 8
b11 9
b1101111 6
b0 7
b1000 0
b1100000111000101 1
1!
1,
#2100000
b0 %
b0 5
b0 ;
0!
0,
b0 *
b0 :
#2110000
b10 #
b10 /
b10 @
b10 '
b10 4
b10 ?
b1001 0
b110000011100010101 1
b1 8
b10111100 6
1!
1,
#2120000
b10 %
b10 5
b10 ;
0!
0,
b10 *
b10 :
#2130000
b11 #
b11 /
b11 @
b11 '
b11 4
b11 ?
b10 8
b10000000 7
b11110000 6
b1010 0
b11000001110001010110 1
1!
1,
#2140000
b11 %
b11 5
b11 ;
0!
0,
b11 *
b11 :
#2150000
b1011 0
b1100000111000101011011 1
b11 8
b11100000 7
b11000000 6
1!
1,
#2160000
b0 %
b0 5
b0 ;
0!
0,
b0 *
b0 :
#2170000
b0 #
b0 /
b0 @
b0 '
b0 4
b0 ?
b0 8
b10 9
b111000 7
b0 6
b1100 0
b110000011100010101101111 1
1!
1,
#2180000
0!
0,
b0 H
#2190000
b11 #
b11 /
b11 @
b11 '
b11 4
b11 ?
b1101 0
b11000001110001010110111100 1
b1 8
b11100000 7
1!
1,
#2200000
0!
0,
b1 H
#2210000
b10 #
b10 /
b10 @
b10 '
b10 4
b10 ?
b10 8
b10000000 7
b1110 0
b1100000111000101011011110011 1
1!
1,
#2220000
0!
0,
b10 H
#2230000
b0 #
b0 /
b0 @
b0 '
b0 4
b0 ?
b1111 0
b110000011100010101101111001110 1
b11 8
b0 7
1!
1,
#2240000
0!
0,
b11 H
#2250000
b0 8
b11 9
b10 3
b0 0
b11000001110001010110111100111000 1
1!
1,
#2260000
0!
0,
b100 H
#2270000
b11 )
b11 .
b1 0
b1100000111000101011011110011100000 1
b10 2
b1 8
1!
1,
#2280000
0!
0,
b101 H
#2290000
b1100 )
b1100 .
b10 8
b10 0
b110000011100010101101111001110000000 1
1!
1,
#2300000
0!
0,
b110 H
#2310000
b110000 )
b110000 .
b11 0
b11000001110001010110111100111000000000 1
b11 8
1!
1,
#2320000
0!
0,
b111 H
#2330000
b11000001 )
b11000001 .
b0 8
b10 9
b100 0
b1100000111000101011011110011100000000000 1
1!
1,
#2340000
0!
0,
b1000 H
#2350000
b1100000111 )
b1100000111 .
b101 0
b110000011100010101101111001110000000000000 1
b1 8
1!
1,
#2360000
0!
0,
b1001 H
#2370000
b110000011100 )
b110000011100 .
b10 8
b110 0
b11000001110001010110111100111000000000000000 1
1!
1,
#2380000
0!
0,
b1010 H
#2390000
b11000001110001 )
b11000001110001 .
b111 0
b1100000111000101011011110011100000000000000000 1
b11 8
1!
1,
#2400000
0!
0,
b1011 H
#2410000
b1100000111000101 )
b1100000111000101 .
b0 8
b11 9
b1000 0
b110000011100010101101111001110000000000000000000 1
1!
1,
#2420000
0!
0,
b1100 H
#2430000
b110000011100010101 )
b110000011100010101 .
b1001 0
b11000001110001010110111100111000000000000000000000 1
b1 8
1!
1,
#2440000
0!
0,
b1101 H
#2450000
b11000001110001010110 )
b11000001110001010110 .
b10 8
b1010 0
b1100000111000101011011110011100000000000000000000000 1
1!
1,
#2460000
0!
0,
b1110 H
#2470000
b1100000111000101011011 )
b1100000111000101011011 .
b1011 0
b110000011100010101101111001110000000000000000000000000 1
b11 8
1!
1,
#2480000
0!
0,
b1111 H
#2490000
b110000011100010101101111 )
b110000011100010101101111 .
b0 8
b10 9
b1100 0
b11000001110001010110111100111000000000000000000000000000 1
1!
1,
#2500000
0$
0!
0,
0+
b10000 H
#2510000
b11000001110001010110111100 )
b11000001110001010110111100 .
b1101 0
b1100000111000101011011110011100000000000000000000000000000 1
b101 9
b1 8
0=
b0 >
1!
1,
#2520000
0!
0,
#2530000
b1100000111000101011011110011 )
b1100000111000101011011110011 .
b10 8
b1110 0
b110000011100010101101111001110000000000000000000000000000000 1
1!
1,
#2540000
0!
0,
#2550000
b110000011100010101101111001110 )
b110000011100010101101111001110 .
b1111 0
b11000001110001010110111100111000000000000000000000000000000000 1
b11 8
1!
1,
#2560000
0!
0,
#2570000
0"
1(
0&
b11000001110001010110111100111000 )
b11000001110001010110111100111000 .
b0 8
b0 9
b11 3
b0 0
b1100000111000101011011110011100000000000000000000000000000000000 1
1!
1,
#2580000
0!
0,
#2590000
0(
b0 3
b11 2
b0 C
1!
1,
#2600000
0!
0,
#2610000
b0 2
1!
1,
#2620000
0!
0,
#2630000
1!
1,
#2640000
0!
0,
#2650000
1!
1,
#2660000
0!
0,
#2670000
1!
1,
#2680000
0!
0,
#2690000
1!
1,
#2700000
0!
0,
#2710000
1!
1,
#2720000
0!
0,
#2730000
1!
1,
#2740000
0!
0,
#2750000
1!
1,
#2760000
0!
0,
#2770000
1!
1,
#2780000
0!
0,
#2790000
1!
1,
#2800000
0!
0,
#2810000
1!
1,
#2820000
0!
0,
#2830000
1!
1,
#2840000
0!
0,
#2850000
1!
1,
#2860000
0!
0,
#2870000
1!
1,
#2880000
0!
0,
#2890000
1!
1,
#2900000
0!
0,
b10 *
b10 :
1+
b0 I
#2910000
1!
1,
#2920000
0!
0,
b1 I
#2930000
1!
1,
#2940000
0!
0,
b10 I
#2950000
1!
1,
#2960000
0!
0,
b11 I
#2970000
1!
1,
#2980000
0!
0,
b100 I
#2990000
1!
1,
#3000000
0!
0,
b101 I
#3010000
1!
1,
#3020000
0!
0,
b110 I
#3030000
1!
1,
#3040000
0!
0,
b111 I
#3050000
1!
1,
#3060000
0!
0,
b1000 I
#3070000
1!
1,
#3080000
0!
0,
b1001 I
#3090000
1!
1,
#3100000
0!
0,
b1010 I
#3110000
1!
1,
#3120000
0!
0,
b1011 I
#3130000
1!
1,
#3140000
0!
0,
b1100 I
#3150000
1!
1,
#3160000
0!
0,
b1101 I
#3170000
1!
1,
#3180000
0!
0,
b1110 I
#3190000
1!
1,
#3200000
0!
0,
b1111 I
#3210000
1!
1,
#3220000
0!
0,
b11 *
b11 :
b0 J
b10000 I
#3230000
1!
1,
#3240000
0!
0,
b1 J
#3250000
1!
1,
#3260000
0!
0,
b10 J
#3270000
1!
1,
#3280000
0!
0,
b11 J
#3290000
1!
1,
#3300000
0!
0,
b100 J
#3310000
1!
1,
#3320000
0!
0,
b101 J
#3330000
1!
1,
#3340000
0!
0,
b110 J
#3350000
1!
1,
#3360000
0!
0,
b111 J
#3370000
1!
1,
#3380000
0!
0,
b1000 J
#3390000
1!
1,
#3400000
0!
0,
b1001 J
#3410000
1!
1,
#3420000
0!
0,
b1010 J
#3430000
1!
1,
#3440000
0!
0,
b1011 J
#3450000
1!
1,
#3460000
0!
0,
b1100 J
#3470000
1!
1,
#3480000
0!
0,
b1101 J
#3490000
1!
1,
#3500000
0!
0,
b1110 J
#3510000
1!
1,
#3520000
0!
0,
b1111 J
#3530000
1!
1,
#3540000
0!
0,
b1 *
b1 :
b0 K
b10000 J
#3550000
b1 <
b10 >
1!
1,
#3560000
0!
0,
b1 K
#3570000
b10 <
1!
1,
#3580000
0!
0,
b10 K
#3590000
b11 <
1!
1,
#3600000
0!
0,
b11 K
#3610000
b100 <
1!
1,
#3620000
0!
0,
b100 K
#3630000
b101 <
1!
1,
#3640000
0!
0,
b101 K
#3650000
b110 <
1!
1,
#3660000
0!
0,
b110 K
#3670000
b111 <
1!
1,
#3680000
0!
0,
b111 K
#3690000
b1000 <
1!
1,
#3700000
0!
0,
b1000 K
#3710000
b1001 <
1!
1,
#3720000
0!
0,
b1001 K
#3730000
b1010 <
1!
1,
#3740000
0!
0,
b1010 K
#3750000
b1011 <
1!
1,
#3760000
0!
0,
b1011 K
#3770000
b1100 <
1!
1,
#3780000
0!
0,
b1100 K
#3790000
b1101 <
1!
1,
#3800000
0!
0,
b1101 K
#3810000
b1110 <
1!
1,
#3820000
0!
0,
b1110 K
#3830000
b1111 <
1!
1,
#3840000
0!
0,
b1111 K
#3850000
b10000 <
1!
1,
#3860000
0!
0,
b0 *
b0 :
b0 L
b10000 K
#3870000
b1 >
1!
1,
#3880000
0!
0,
b1 L
#3890000
1!
1,
#3900000
0!
0,
b10 L
#3910000
1!
1,
#3920000
0!
0,
b11 L
#3930000
1!
1,
#3940000
0!
0,
b100 L
#3950000
1!
1,
#3960000
0!
0,
b101 L
#3970000
1!
1,
#3980000
0!
0,
b110 L
#3990000
1!
1,
#4000000
0!
0,
b111 L
#4010000
1!
1,
#4020000
0!
0,
b1000 L
#4030000
1!
1,
#4040000
0!
0,
b1001 L
#4050000
1!
1,
#4060000
0!
0,
b1010 L
#4070000
1!
1,
#4080000
0!
0,
b1011 L
#4090000
1!
1,
#4100000
0!
0,
b1100 L
#4110000
1!
1,
#4120000
0!
0,
b1101 L
#4130000
1!
1,
#4140000
0!
0,
b1110 L
#4150000
1!
1,
#4160000
0!
0,
b1111 L
#4170000
1!
1,
#4180000
0!
0,
0+
b10000 L
#4190000
b0 <
b0 >
1!
1,
